<?xml version="1.0" standalone="no"?>
<!DOCTYPE svg PUBLIC "-//W3C//DTD SVG 1.1//EN" "http://www.w3.org/Graphics/SVG/1.1/DTD/svg11.dtd" >
<svg xmlns="http://www.w3.org/2000/svg" xmlns:xlink="http://www.w3.org/1999/xlink" version="1.1">
<metadata>
Created by FontForge 20170731 at Tue May 24 20:51:53 2016
 By Aleksey,,,
Copyright (c) 2015, Cadson Demak (info@cadsondemak.com)
</metadata>
<defs>
<font id="Prompt-Light" horiz-adv-x="0" >
  <font-face 
    font-family="Prompt Light"
    font-weight="300"
    font-stretch="normal"
    units-per-em="1000"
    panose-1="0 0 4 0 0 0 0 0 0 0"
    ascent="750"
    descent="-250"
    bbox="-590 -351 1083 1039"
    underline-thickness="50"
    underline-position="-150"
    unicode-range="U+0020-0E5B"
  />
<missing-glyph horiz-adv-x="505" 
d="M50 714h405v-714h-405v714zM415 41v632h-325v-632h325z" />
    <glyph glyph-name="ru_lakkhangyaothai" unicode="&#xe24;&#xe45;" horiz-adv-x="864" 
d="M484 341q0 75 -40.5 111t-120.5 36q-62 0 -106.5 -18t-83.5 -60l44 -69v-224q0 -29 11.5 -40.5t39.5 -11.5h58v-65h-90q-47 0 -71.5 26t-24.5 72v242l-50 79q50 64 116 97.5t157 33.5q81 0 139 -28q24 12 61.5 20t75.5 8q99 0 147 -53t48 -152v-541h-77v546
q0 71 -29 104.5t-99 33.5q-38 0 -73 -8q45 -51 45 -132v-544h-77v537z" />
    <glyph glyph-name="lu_lakkhangyaothai" unicode="&#xe26;&#xe45;" horiz-adv-x="887" 
d="M508 341q0 147 -161 147q-62 0 -106.5 -18t-81.5 -58l62 -70v-244q0 -46 -24.5 -72t-71.5 -26h-75v65h45q29 0 39 10.5t10 41.5v223l-70 79q49 64 115.5 97.5t157.5 33.5q82 0 138 -28q24 12 61.5 20t75.5 8q99 0 147 -53t48 -152v-541h-77v546q0 71 -29 104.5t-99 33.5
q-37 0 -72 -8q45 -51 45 -132v-544h-77v537z" />
    <glyph glyph-name=".notdef" horiz-adv-x="505" 
d="M50 714h405v-714h-405v714zM415 41v632h-325v-632h325z" />
    <glyph glyph-name=".null" horiz-adv-x="500" 
 />
    <glyph glyph-name="nonmarkingreturn" horiz-adv-x="260" 
 />
    <glyph glyph-name="space" unicode=" " horiz-adv-x="380" 
 />
    <glyph glyph-name="uni0E01" unicode="&#xe01;" horiz-adv-x="631" 
d="M100 340l-50 79q50 64 116 97.5t157 33.5q116 0 177 -53t61 -149v-348h-77v341q0 75 -40.5 111t-120.5 36q-62 0 -108 -18.5t-82 -59.5l44 -69v-341h-77v340z" />
    <glyph glyph-name="uni0E02" unicode="&#xe02;" horiz-adv-x="568" 
d="M114.5 39.5q-59.5 54.5 -59.5 145.5v43q0 32 14.5 60t41.5 66q20 27 30 44.5t10 34.5q0 23 -10 31.5t-36 8.5h-55v62h87q42 0 66.5 -25t24.5 -67q0 -27 -12 -50.5t-37 -58.5q-24 -32 -35.5 -54.5t-11.5 -47.5v-50q0 -65 37 -100t108 -35q72 0 108 35t36 101v352h77v-338
q0 -100 -58 -156t-163 -56q-103 0 -162.5 54.5z" />
    <glyph glyph-name="uni0E03" unicode="&#xe03;" horiz-adv-x="571" 
d="M117.5 38q-59.5 53 -59.5 143v49q0 31 16.5 59t48.5 66q23 28 33.5 44t10.5 31v3q-22 -12 -49 -12q-33 0 -50.5 18t-17.5 53v43h58v-34q0 -17 8 -24.5t27 -7.5q20 0 37 13v53h61v-88q0 -29 -14 -55t-42 -63q-25 -31 -37.5 -53.5t-12.5 -45.5v-49q0 -64 37 -99t108 -35
q72 0 108 35t36 101v352h77v-338q0 -100 -58 -156t-163 -56q-103 0 -162.5 53z" />
    <glyph glyph-name="uni0E04" unicode="&#xe04;" horiz-adv-x="630" 
d="M70 338q0 101 65.5 156.5t179.5 55.5q115 0 180 -55.5t65 -156.5v-338h-77v341q0 74 -44.5 110.5t-123.5 36.5t-123.5 -36.5t-44.5 -110.5v-117q15 26 45.5 42.5t71.5 16.5h79v-62h-86q-30 0 -55.5 -16t-40 -40.5t-14.5 -50.5v-114h-77v338z" />
    <glyph glyph-name="uni0E05" unicode="&#xe05;" horiz-adv-x="630" 
d="M70 363q0 89 29.5 138t106.5 49q39 0 67 -17t41 -48q14 31 42.5 48t67.5 17q78 0 107 -48.5t29 -138.5v-363h-77v389q0 51 -15.5 75t-55.5 24q-30 0 -47.5 -16t-25.5 -51h-49q-8 35 -24.5 51t-47.5 16q-40 0 -55.5 -24t-15.5 -74v-166q15 26 45.5 42.5t71.5 16.5h79v-62
h-86q-30 0 -55.5 -15.5t-40 -40t-14.5 -51.5v-114h-77v363z" />
    <glyph glyph-name="uni0E06" unicode="&#xe06;" horiz-adv-x="609" 
d="M225 8q-53 23 -92 71v-79h-75v219q0 32 16.5 62t48.5 71q22 28 33 45.5t11 32.5v3q-22 -12 -49 -12q-33 0 -50.5 18t-17.5 53v43h58v-34q0 -17 8 -24.5t27 -7.5q20 0 37 13v53h61v-91q0 -29 -13.5 -54.5t-40.5 -62.5t-39.5 -60.5t-12.5 -49.5v-68q66 -102 180 -102
q147 0 147 132v356h77v-359q0 -87 -54 -139t-152 -52q-55 0 -108 23z" />
    <glyph glyph-name="uni0E07" unicode="&#xe07;" horiz-adv-x="609" 
d="M50 468h78l137 -407q105 0 161 56.5t56 159.5t-39 157t-125 54q-37 0 -71 -9v61q33 10 82 10q112 0 171 -73t59 -200q0 -86 -36.5 -149t-99 -95.5t-140.5 -32.5h-76z" />
    <glyph glyph-name="uni0E08" unicode="&#xe08;" horiz-adv-x="583" 
d="M83 294h76l57 -233q72 0 126 27t84 77t30 117q0 71 -19.5 116t-67 67.5t-130.5 22.5q-51 0 -102 -9.5t-87 -25.5v62q36 16 89.5 25.5t107.5 9.5q145 0 215.5 -66t70.5 -202q0 -80 -40 -144.5t-108.5 -101t-150.5 -36.5h-79z" />
    <glyph glyph-name="uni0E09" unicode="&#xe09;" horiz-adv-x="601" 
d="M117 34.5q-50 49.5 -50 138.5v134h77v-129q0 -66 34 -98.5t104 -32.5q56 0 98 25t74 77v145q0 100 -46 147t-156 47q-54 0 -109.5 -9.5t-92.5 -25.5v62q36 16 93 25.5t115 9.5q141 0 207 -63t66 -190v-297h-75v79q-71 -94 -193 -94q-96 0 -146 49.5z" />
    <glyph glyph-name="uni0E0A" unicode="&#xe0a;" horiz-adv-x="582" 
d="M164 10q-52 25 -80.5 70t-28.5 105v43q0 32 14.5 60t41.5 66q20 27 30 44.5t10 34.5q0 23 -10 31.5t-36 8.5h-55v62h87q42 0 66.5 -25t24.5 -67q0 -27 -12 -50.5t-37 -58.5q-24 -32 -35.5 -54.5t-11.5 -47.5v-50q0 -64 40 -99.5t111 -35.5q74 0 118 40t44 120
q0 76 -33 116t-96 40v44l111 143h85l-116 -149q126 -38 126 -194q0 -105 -66 -163.5t-173 -58.5q-67 0 -119 25z" />
    <glyph glyph-name="uni0E0B" unicode="&#xe0b;" horiz-adv-x="585" 
d="M166.5 9q-51.5 24 -80 68.5t-28.5 103.5v49q0 31 16.5 59t48.5 66q23 28 33.5 44t10.5 31v3q-22 -12 -49 -12q-33 0 -50.5 18t-17.5 53v43h58v-34q0 -17 8 -24.5t27 -7.5q20 0 37 13v53h61v-88q0 -29 -14 -55t-42 -63q-25 -31 -37.5 -53.5t-12.5 -45.5v-49
q0 -63 40 -98.5t111 -35.5q74 0 118 40t44 120q0 76 -33 116t-96 40v44l111 143h85l-116 -149q126 -38 126 -194q0 -105 -66 -163.5t-173 -58.5q-68 0 -119.5 24z" />
    <glyph glyph-name="uni0E0C" unicode="&#xe0c;" horiz-adv-x="994" 
d="M626 7.5q-50 22.5 -88 69.5v-77h-74v341q0 76 -37.5 111.5t-113.5 35.5q-58 0 -100 -18t-80 -60l44 -69v-224q0 -29 11.5 -40.5t39.5 -11.5h58v-65h-90q-47 0 -71.5 26t-24.5 72v242l-50 79q51 65 113.5 98t149.5 33q112 0 169.5 -53t57.5 -149v-199q33 -52 77 -77
t93 -25q137 0 137 132v356h77v-359q0 -87 -51 -139t-145 -52q-52 0 -102 22.5z" />
    <glyph glyph-name="uni0E0D" unicode="&#xe0d;" horiz-adv-x="999" 
d="M600.5 -86q-51.5 12 -80.5 31v65q39 -23 86.5 -34.5t96.5 -11.5q77 0 121 22t44 66q0 33 -24 57q-61 -40 -147 -40q-117 0 -175 57t-58 157v58q0 76 -37.5 111.5t-113.5 35.5q-58 0 -100 -18t-80 -60l44 -69v-224q0 -29 11.5 -40.5t39.5 -11.5h58v-65h-90q-47 0 -71.5 26
t-24.5 72v242l-50 79q51 65 113.5 98t149.5 33q112 0 169.5 -53t57.5 -149v-66q0 -73 38 -112.5t119 -39.5q79 0 117.5 41.5t38.5 114.5v249h77v-252q0 -77 -38 -130q24 -21 35.5 -45.5t11.5 -55.5q0 -73 -64.5 -111.5t-171.5 -38.5q-51 0 -102.5 12z" />
    <glyph glyph-name="uni0E0E" unicode="&#xe0e;" horiz-adv-x="655" 
d="M192 -158q23 24 67.5 40t89.5 16q95 0 159 -45v488q0 147 -161 147q-62 0 -106.5 -18t-81.5 -58l62 -70v-244q0 -46 -24.5 -72t-71.5 -26h-75v65h45q29 0 39 10.5t10 41.5v223l-70 79q49 64 115.5 97.5t157.5 33.5q116 0 177 -53t61 -149v-569h-70q-42 31 -80.5 44
t-85.5 13q-44 0 -86 -16t-71 -46v68z" />
    <glyph glyph-name="uni0E0F" unicode="&#xe0f;" horiz-adv-x="655" 
d="M173.5 -216.5q-27.5 7.5 -44.5 20.5v61q20 -13 45.5 -20t51.5 -7q91 0 110 84h49l123 -73v492q0 147 -161 147q-62 0 -106.5 -18t-81.5 -58l62 -70v-244q0 -46 -24.5 -72t-71.5 -26h-75v65h45q29 0 39 10.5t10 41.5v223l-70 79q49 64 115.5 97.5t157.5 33.5
q116 0 177 -53t61 -149v-569h-74l-138 82q-35 -85 -143 -85q-29 0 -56.5 7.5z" />
    <glyph glyph-name="uni0E10" unicode="&#xe10;" horiz-adv-x="587" 
d="M83 294h76l57 -233q72 0 126 27t84 77t30 117q0 71 -19.5 116t-67 67.5t-130.5 22.5q-51 0 -102 -9.5t-87 -25.5v62q36 16 89.5 25.5t107.5 9.5q101 0 167 -33l52 58h86l-85 -96q66 -66 66 -197q0 -80 -40 -144.5t-108.5 -101t-150.5 -36.5h-79zM105 -216.5
q-29 7.5 -46 20.5v62q20 -13 46 -20t52 -7q47 0 72.5 19.5t36.5 63.5h45l127 -77v99h77v-165h-74l-137 84q-19 -47 -53 -67t-88 -20q-29 0 -58 7.5z" />
    <glyph glyph-name="uni0E11" unicode="&#xe11;" horiz-adv-x="617" 
d="M70 230q0 31 14.5 59t42.5 66q20 26 29.5 43t9.5 32v3q-22 -12 -49 -12q-33 0 -50 18t-17 53v43h58v-34q0 -17 8 -24.5t27 -7.5q20 0 37 13v53h61v-48q27 31 67 47t85 16q154 0 154 -175v-375h-77v382q0 53 -22.5 79.5t-70.5 26.5q-45 0 -80 -17t-63 -56
q-5 -22 -15.5 -40t-29.5 -46q-22 -32 -32 -52.5t-10 -46.5v-230h-77v230z" />
    <glyph glyph-name="uni0E12" unicode="&#xe12;" horiz-adv-x="1033" 
d="M170 16.5q-57 31.5 -88.5 92.5t-31.5 149q0 91 22 156.5t62.5 100.5t94.5 35q40 0 65 -16.5t40 -48.5q16 32 46.5 48.5t71.5 16.5q66 0 96.5 -42t30.5 -114v-245q33 -52 77 -77t93 -25q137 0 137 132v356h77v-359q0 -87 -51 -139t-145 -52q-52 0 -102 22.5t-88 69.5v-77
h-74v389q0 51 -15 75t-53 24q-31 0 -49.5 -16.5t-26.5 -50.5h-50q-13 67 -66 67q-66 0 -91 -71t-25 -159q0 -103 49.5 -157t136.5 -54q40 0 71 9v-61q-33 -10 -82 -10q-75 0 -132 31.5z" />
    <glyph glyph-name="uni0E13" unicode="&#xe13;" horiz-adv-x="994" 
d="M515 37q-51 52 -51 139v165q0 76 -37.5 111.5t-113.5 35.5q-58 0 -100 -18t-80 -60l44 -69v-224q0 -29 11.5 -40.5t39.5 -11.5h58v-65h-90q-47 0 -71.5 26t-24.5 72v242l-50 79q51 65 113.5 98t149.5 33q112 0 169.5 -53t57.5 -149v-169q0 -132 138 -132q103 0 169 102
v386h77v-535h-74v77q-71 -92 -190 -92q-94 0 -145 52z" />
    <glyph glyph-name="uni0E14" unicode="&#xe14;" horiz-adv-x="665" 
d="M170 16.5q-57 31.5 -88.5 92.5t-31.5 149q0 138 75.5 215t209.5 77q137 0 198.5 -64.5t61.5 -162.5v-323h-77v324q0 164 -183 164q-98 0 -153 -58.5t-55 -171.5q0 -103 50 -157t136 -54q37 0 71 9v-61q-33 -10 -82 -10q-75 0 -132 31.5z" />
    <glyph glyph-name="uni0E15" unicode="&#xe15;" horiz-adv-x="665" 
d="M170 16.5q-57 31.5 -88.5 92.5t-31.5 149q0 90 23.5 156t65.5 101t96 35q77 0 106 -65q16 32 49 48.5t74 16.5q66 0 98.5 -42.5t32.5 -113.5v-394h-77v389q0 50 -16.5 74.5t-54.5 24.5q-65 0 -81 -67h-50q-7 35 -23 51t-47 16q-52 0 -85.5 -60t-33.5 -170q0 -103 50 -157
t136 -54q37 0 71 9v-61q-33 -10 -82 -10q-75 0 -132 31.5z" />
    <glyph glyph-name="uni0E16" unicode="&#xe16;" horiz-adv-x="631" 
d="M124.5 26q-24.5 26 -24.5 72v242l-50 79q50 64 116 97.5t157 33.5q116 0 177 -53t61 -149v-348h-77v341q0 75 -40.5 111t-120.5 36q-62 0 -106.5 -18t-83.5 -60l44 -69v-224q0 -29 11.5 -40.5t39.5 -11.5h58v-65h-90q-47 0 -71.5 26z" />
    <glyph glyph-name="uni0E17" unicode="&#xe17;" horiz-adv-x="621" 
d="M70 535h75v-78q39 47 94 70t112 23q96 0 148 -52t52 -135v-363h-77v359q0 61 -35 95t-106 34q-121 0 -186 -100v-388h-77v535z" />
    <glyph glyph-name="uni0E18" unicode="&#xe18;" horiz-adv-x="553" 
d="M116 27q-64 42 -64 117v68h77v-66q0 -50 42 -74.5t110 -24.5q69 0 107 23.5t38 70.5q0 36 -16 56.5t-49 33t-106 30.5q-70 18 -111.5 34t-67.5 44.5t-26 73.5q0 72 60.5 104.5t160.5 32.5q54 0 111.5 -12t87.5 -31v-64q-35 21 -87.5 33t-104.5 12q-74 0 -112.5 -15.5
t-38.5 -59.5q0 -26 17.5 -42t47 -26.5t87.5 -26.5l30 -8q72 -20 112 -38.5t61 -49t21 -81.5q0 -71 -58 -113.5t-164 -42.5q-101 0 -165 42z" />
    <glyph glyph-name="uni0E19" unicode="&#xe19;" horiz-adv-x="621" 
d="M124 37q-54 52 -54 139v359h77v-356q0 -65 37 -98.5t110 -33.5q114 0 180 102v386h77v-535h-75v79q-37 -48 -86 -71t-114 -23q-98 0 -152 52z" />
    <glyph glyph-name="uni0E1A" unicode="&#xe1a;" horiz-adv-x="636" 
d="M186.5 12q-56.5 27 -86.5 76.5t-30 113.5v333h77v-334q0 -71 44.5 -112.5t126.5 -41.5t126.5 41.5t44.5 112.5v334h77v-333q0 -64 -30 -113.5t-86.5 -76.5t-131.5 -27t-131.5 27z" />
    <glyph glyph-name="uni0E1B" unicode="&#xe1b;" horiz-adv-x="636" 
d="M186.5 12q-56.5 27 -86.5 76.5t-30 113.5v333h77v-334q0 -71 44.5 -112.5t126.5 -41.5t126.5 41.5t44.5 112.5v513h77v-512q0 -64 -30 -113.5t-86.5 -76.5t-131.5 -27t-131.5 27z" />
    <glyph glyph-name="uni0E1C" unicode="&#xe1c;" horiz-adv-x="637" 
d="M70 434q0 49 25 75t73 26h68v-65h-36q-29 0 -41 -12t-12 -40v-299l153 256h37l153 -256v416h77v-535h-71l-177 297l-178 -297h-71v434z" />
    <glyph glyph-name="uni0E1D" unicode="&#xe1d;" horiz-adv-x="637" 
d="M70 434q0 49 25 75t73 26h68v-65h-36q-29 0 -41 -12t-12 -40v-299l153 256h37l153 -256v595h77v-714h-71l-177 297l-178 -297h-71v434z" />
    <glyph glyph-name="uni0E1E" unicode="&#xe1e;" horiz-adv-x="768" 
d="M40 535h77l109 -424l127 424h62l127 -424l109 424h77l-148 -535h-65l-131 437l-131 -437h-65z" />
    <glyph glyph-name="uni0E1F" unicode="&#xe1f;" horiz-adv-x="753" 
d="M40 535h77l109 -424l127 424h62l127 -424l149 603h72l-183 -714h-65l-131 437l-131 -437h-65z" />
    <glyph glyph-name="uni0E20" unicode="&#xe20;" horiz-adv-x="655" 
d="M50 65h45q29 0 39 10.5t10 41.5v223l-70 79q49 64 115.5 97.5t157.5 33.5q116 0 177 -53t61 -149v-348h-77v341q0 147 -161 147q-62 0 -106.5 -18t-81.5 -58l62 -70v-244q0 -46 -24.5 -72t-71.5 -26h-75v65z" />
    <glyph glyph-name="uni0E21" unicode="&#xe21;" horiz-adv-x="621" 
d="M145 79v-79h-75v535h77v-386q66 -102 180 -102q73 0 110 33.5t37 98.5v356h77v-359q0 -87 -54 -139t-152 -52q-122 0 -200 94z" />
    <glyph glyph-name="uni0E22" unicode="&#xe22;" horiz-adv-x="622" 
d="M116.5 27.5q-66.5 42.5 -66.5 125.5q0 47 25 81.5t69 47.5q-42 16 -66.5 48.5t-24.5 76.5q0 64 42 103.5t122 39.5q22 0 45.5 -3t37.5 -7v-61q-13 4 -33.5 6.5t-37.5 2.5q-48 0 -73.5 -22.5t-25.5 -62.5q0 -41 28.5 -64.5t81.5 -23.5h60v-64h-59q-54 0 -84 -24.5
t-30 -73.5q0 -51 45.5 -78.5t123.5 -27.5q91 0 134.5 40.5t43.5 113.5v334h77v-332q0 -56 -24 -105t-81 -81t-150 -32q-113 0 -179.5 42.5z" />
    <glyph glyph-name="uni0E23" unicode="&#xe23;" horiz-adv-x="504" 
d="M139.5 -1.5q-55.5 13.5 -87.5 37.5v65q42 -27 92 -40.5t98 -13.5q72 0 103.5 18.5t31.5 62.5q0 29 -13.5 47.5t-44.5 32.5t-92 32q-91 27 -134 61.5t-43 100.5q0 72 54.5 110t149.5 38q49 0 94 -11.5t75 -30.5v-64q-72 44 -163 44q-133 0 -133 -86q0 -31 16 -49t47 -30.5
t95 -30.5t100.5 -39.5t52.5 -51t16 -74.5q0 -64 -50.5 -103t-156.5 -39q-52 0 -107.5 13.5z" />
    <glyph glyph-name="uni0E24" unicode="&#xe24;" horiz-adv-x="631" 
d="M484 341q0 75 -40.5 111t-120.5 36q-62 0 -106.5 -18t-83.5 -60l44 -69v-224q0 -29 11.5 -40.5t39.5 -11.5h58v-65h-90q-47 0 -71.5 26t-24.5 72v242l-50 79q50 64 116 97.5t157 33.5q116 0 177 -53t61 -149v-544h-77v537z" />
    <glyph glyph-name="uni0E25" unicode="&#xe25;" horiz-adv-x="596" 
d="M101 28.5q-51 43.5 -51 125.5q0 80 57 126.5t153 46.5q104 0 189 -40v58q0 74 -40 108.5t-130 34.5q-47 0 -92 -8.5t-78 -23.5v62q30 14 81 23t99 9q120 0 178.5 -54.5t58.5 -149.5v-346h-77v225q-79 40 -182 40q-72 0 -106 -27.5t-34 -83.5q0 -55 31 -81t99 -26
q35 0 66 9v-61q-35 -10 -83 -10q-88 0 -139 43.5z" />
    <glyph glyph-name="uni0E26" unicode="&#xe26;" horiz-adv-x="655" 
d="M508 341q0 147 -161 147q-62 0 -106.5 -18t-81.5 -58l62 -70v-244q0 -46 -24.5 -72t-71.5 -26h-75v65h45q29 0 39 10.5t10 41.5v223l-70 79q49 64 115.5 97.5t157.5 33.5q116 0 177 -53t61 -149v-544h-77v537z" />
    <glyph glyph-name="uni0E27" unicode="&#xe27;" horiz-adv-x="578" 
d="M50 32v65q71 -50 178 -50q105 0 164 55.5t59 164.5t-59 165t-164 56q-106 0 -177 -51v66q72 47 190 47q133 0 210 -74.5t77 -208.5t-77 -208t-210 -74q-121 0 -191 47z" />
    <glyph glyph-name="uni0E28" unicode="&#xe28;" horiz-adv-x="637" 
d="M70 338q0 101 65.5 156.5t179.5 55.5q82 0 142 -30l49 55h86l-84 -94q52 -54 52 -143v-338h-77v341q0 74 -44.5 110.5t-123.5 36.5t-123.5 -36.5t-44.5 -110.5v-117q15 26 45.5 42.5t71.5 16.5h79v-62h-86q-30 0 -55.5 -16t-40 -40.5t-14.5 -50.5v-114h-77v338z" />
    <glyph glyph-name="uni0E29" unicode="&#xe29;" horiz-adv-x="652" 
d="M186.5 12q-56.5 27 -86.5 76.5t-30 113.5v333h77v-334q0 -71 44.5 -112.5t126.5 -41.5t126.5 41.5t44.5 112.5v78h-137v62h137v194h77v-194h61v-62h-61v-77q0 -64 -30 -113.5t-86.5 -76.5t-131.5 -27t-131.5 27z" />
    <glyph glyph-name="uni0E2A" unicode="&#xe2a;" horiz-adv-x="612" 
d="M101 28.5q-51 43.5 -51 125.5q0 80 57 126.5t153 46.5q104 0 189 -40v58q0 74 -40 108.5t-130 34.5q-47 0 -92 -8.5t-78 -23.5v62q30 14 81 23t99 9q101 0 159 -40l58 65h86l-98 -110q32 -48 32 -119v-346h-77v225q-79 40 -182 40q-140 0 -140 -111q0 -55 31 -81t99 -26
q35 0 66 9v-61q-35 -10 -83 -10q-88 0 -139 43.5z" />
    <glyph glyph-name="uni0E2B" unicode="&#xe2b;" horiz-adv-x="599" 
d="M70 535h77v-257l288 257h91l-146 -131q83 -20 116 -65.5t33 -120.5v-218h-77v214q0 63 -27.5 96t-94.5 47l-183 -163v-194h-77v535z" />
    <glyph glyph-name="uni0E2C" unicode="&#xe2c;" horiz-adv-x="641" 
d="M70 535h77v-411l156 266h36l156 -266v279q0 62 -24 89t-91 27v45l114 150h87l-117 -154q60 -15 84 -53.5t24 -98.5v-408h-71l-180 310l-180 -310h-71v535z" />
    <glyph glyph-name="uni0E2D" unicode="&#xe2d;" horiz-adv-x="601" 
d="M144 0q-55 15 -94 43v252h204v-62h-127v-154q49 -32 131 -32q102 0 159 60t57 170q0 111 -53.5 161t-176.5 50q-54 0 -104.5 -11.5t-85.5 -36.5v64q76 46 199 46q146 0 222 -69.5t76 -203.5q0 -88 -35 -154t-101 -102t-157 -36q-59 0 -114 15z" />
    <glyph glyph-name="uni0E2E" unicode="&#xe2e;" horiz-adv-x="602" 
d="M144 0q-55 15 -94 43v252h204v-62h-127v-154q49 -32 131 -32q102 0 159 60t57 170q0 109 -56.5 160t-173.5 51q-54 0 -104.5 -11.5t-85.5 -36.5v64q76 46 199 46q111 0 181 -44l62 69h86l-98 -110q34 -37 50.5 -81t16.5 -107q0 -88 -35 -154t-101 -102t-157 -36
q-59 0 -114 15z" />
    <glyph glyph-name="uni0E2F" unicode="&#xe2f;" horiz-adv-x="506" 
d="M359 274q-29 -20 -68.5 -30t-83.5 -10q-78 0 -127.5 41t-49.5 116q0 76 45 117.5t116 41.5q53 0 84 -12v-59q-31 9 -66 9q-47 0 -74.5 -24t-27.5 -73t31 -72t84 -23q81 0 137 42v197h77v-535h-77v274z" />
    <glyph glyph-name="uni0E30" unicode="&#xe30;" horiz-adv-x="321" 
d="M67 349q-17 18 -17 54v50h71v-34q0 -17 7.5 -24t26.5 -7h116v-57h-148q-39 0 -56 18zM67 74q-17 18 -17 54v50h71v-34q0 -17 7.5 -24t26.5 -7h116v-57h-148q-39 0 -56 18z" />
    <glyph glyph-name="uni0E31" unicode="&#xe31;" 
d="M-300 640q-18 19 -18 56v47h71v-34q0 -18 7 -24.5t27 -6.5h234v-57h-265q-38 0 -56 19z" />
    <glyph glyph-name="uni0E32" unicode="&#xe32;" horiz-adv-x="422" 
d="M275 350q0 71 -29 104.5t-99 33.5q-71 0 -127 -28v62q24 12 61.5 20t75.5 8q99 0 147 -53t48 -152v-345h-77v350z" />
    <glyph glyph-name="uni0E33" unicode="&#xe33;" horiz-adv-x="424" 
d="M-199 639.5q-31 30.5 -31 73.5t31 74.5t74 31.5t74 -31.5t31 -74.5t-31 -73.5t-74 -30.5t-74 30.5zM-91.5 678q14.5 15 14.5 35t-14 34.5t-34 14.5t-34 -14.5t-14 -34.5t14 -35t34 -15q19 0 33.5 15zM277 350q0 71 -29 104.5t-99 33.5q-71 0 -127 -28v62q24 12 61.5 20
t75.5 8q99 0 147 -53t48 -152v-345h-77v350z" />
    <glyph glyph-name="uni0E34" unicode="&#xe34;" 
d="M-488 678h417v-57h-417v57z" />
    <glyph glyph-name="uni0E35" unicode="&#xe35;" 
d="M-487 678h346v106h71v-163h-417v57z" />
    <glyph glyph-name="uni0E36" unicode="&#xe36;" 
d="M-486 673h261q-5 6 -8 17t-3 22q0 41 26.5 64t67.5 23q46 0 69 -25t23 -62q0 -40 -28 -65.5t-73 -25.5h-335v52zM-109.5 678q12.5 13 12.5 34q0 20 -12.5 33t-33.5 13q-20 0 -33 -13t-13 -33q0 -21 12.5 -34t33.5 -13t33.5 13z" />
    <glyph glyph-name="uni0E37" unicode="&#xe37;" 
d="M-486 673h208v111h62v-111h85v111h61v-163h-416v52z" />
    <glyph glyph-name="uni0E38" unicode="&#xe38;" 
d="M-141 -157q0 19 -7 24.5t-28 5.5h-31v65h71q39 0 52.5 -17t13.5 -60v-118h-71v100z" />
    <glyph glyph-name="uni0E39" unicode="&#xe39;" 
d="M-275 -241q-31 25 -31 66v35q0 14 -4 18.5t-17 4.5h-35v55h76q25 0 34.5 -11.5t9.5 -36.5v-58q0 -49 53 -49q52 0 52 49v106h64v-111q0 -42 -30 -67.5t-84 -25.5q-57 0 -88 25z" />
    <glyph glyph-name="uni0E3A" unicode="&#xe3a;" 
d="M-140.5 -135.5q-13.5 13.5 -13.5 32.5t13.5 33t32.5 14t33 -14t14 -33t-14 -32.5t-33 -13.5t-32.5 13.5z" />
    <glyph glyph-name="uni0E3F" unicode="&#xe3f;" horiz-adv-x="641" 
d="M265 0h-195v699h195v103h69v-103h46q91 0 139 -47.5t48 -139.5q0 -54 -25 -93.5t-66 -58.5q115 -30 115 -165q0 -59 -25.5 -103.5t-70 -68t-98.5 -23.5h-63v-103h-69v103zM265 391v242h-117v-242h117zM374 391q56 0 85.5 30.5t29.5 88.5q0 66 -29 94.5t-94 28.5h-32v-242
h40zM265 66v259h-117v-259h117zM380 66q66 0 99.5 30t33.5 101q0 69 -35 98.5t-109 29.5h-35v-259h46z" />
    <glyph glyph-name="uni0E40" unicode="&#xe40;" horiz-adv-x="286" 
d="M94 26q-24 26 -24 72v437h77v-420q0 -29 12 -39.5t40 -10.5h37v-65h-73q-45 0 -69 26z" />
    <glyph glyph-name="uni0E41" unicode="&#xe41;" horiz-adv-x="532" 
d="M94 26q-24 26 -24 72v437h77v-420q0 -29 12 -39.5t40 -10.5h37v-65h-73q-45 0 -69 26zM340 26q-24 26 -24 72v437h77v-420q0 -29 12 -39.5t40 -10.5h37v-65h-73q-45 0 -69 26z" />
    <glyph glyph-name="uni0E42" unicode="&#xe42;" horiz-adv-x="320" 
d="M145 26q-24 26 -24 72v404q0 75 -27 117t-89 67v66h295v-65h-189q46 -28 66.5 -73.5t20.5 -114.5v-384q0 -29 12 -39.5t40 -10.5h37v-65h-73q-45 0 -69 26z" />
    <glyph glyph-name="uni0E43" unicode="&#xe43;" horiz-adv-x="293" 
d="M103 26q-24 26 -24 72v289q0 54 19 89t54 75q22 25 33 43t11 38q0 36 -19 52t-65 16q-59 0 -112 -33v62q55 33 133 33q71 0 105.5 -35.5t34.5 -92.5q0 -28 -13 -50t-39 -51q-32 -37 -48.5 -67.5t-16.5 -75.5v-275q0 -29 12 -39.5t40 -10.5h37v-65h-73q-45 0 -69 26z" />
    <glyph glyph-name="uni0E44" unicode="&#xe44;" horiz-adv-x="320" 
d="M130 29q-24 26 -24 72v396q0 76 20.5 118t72.5 72h-194v65h295v-64q-61 -27 -89 -69.5t-28 -116.5v-384q0 -29 12 -39.5t40 -10.5h37v-65h-73q-45 0 -69 26z" />
    <glyph glyph-name="uni0E45" unicode="&#xe45;" horiz-adv-x="422" 
d="M275 350q0 71 -29 104.5t-99 33.5q-71 0 -127 -28v62q24 12 61.5 20t75.5 8q99 0 147 -53t48 -152v-541h-77v546z" />
    <glyph glyph-name="uni0E46" unicode="&#xe46;" horiz-adv-x="584" 
d="M437 395q0 49 -15 71t-53 22q-31 0 -48.5 -16.5t-24.5 -50.5h-50q-7 36 -20 51.5t-43 15.5q-33 0 -54.5 -28.5t-21.5 -90.5q0 -107 112 -107q39 0 71 9v-61q-40 -10 -82 -10q-79 0 -128.5 41t-49.5 128q0 85 37.5 133t103.5 48q39 0 63.5 -16.5t37.5 -48.5q29 65 108 65
q77 0 105.5 -40t28.5 -120v-390h-77v395z" />
    <glyph glyph-name="uni0E47" unicode="&#xe47;" 
d="M-425.5 646q-29.5 29 -29.5 75q0 57 33 86.5t92 29.5h228v-46h-224q-37 0 -55 -16t-18 -49q0 -30 15.5 -45.5t43.5 -15.5q30 0 46 16t16 42h47q0 -26 15 -40t44 -14h53v-48h-52q-33 0 -55.5 14t-28.5 34q-8 -21 -33 -36.5t-58 -15.5q-50 0 -79.5 29z" />
    <glyph glyph-name="uni0E48" unicode="&#xe48;" 
d="M-146 782h75v-161h-75v161z" />
    <glyph glyph-name="uni0E49" unicode="&#xe49;" 
d="M-271 683q0 13 -4.5 18t-17.5 5h-44v56h65q30 0 43.5 -14.5t13.5 -36.5v-37h205v-53h-261v62z" />
    <glyph glyph-name="uni0E4A" unicode="&#xe4a;" 
d="M-429 706q0 52 25 80t64 28q28 0 44.5 -10.5t25.5 -31.5q17 41 69 41q77 0 77 -84v-62h17q17 0 24.5 8t7.5 26v110h47v-102q0 -45 -20 -66.5t-68 -21.5h-53v82q0 32 -7.5 45.5t-30.5 13.5q-24 0 -33 -13.5t-9 -38.5v-16h-41v16q0 52 -41 52q-23 0 -33.5 -15t-10.5 -47
q0 -42 26 -79h-54q-26 37 -26 85z" />
    <glyph glyph-name="uni0E4B" unicode="&#xe4b;" 
d="M-195 678h-68v60h68v58h75v-58h68v-60h-68v-57h-75v57z" />
    <glyph glyph-name="uni0E4C" unicode="&#xe4c;" 
d="M-294 671q0 70 76 70h221v-53h-191q-20 0 -27.5 -7t-7.5 -26v-34h-71v50z" />
    <glyph glyph-name="uni0E4D" unicode="&#xe4d;" 
d="M-199 639.5q-31 30.5 -31 73.5t31 74.5t74 31.5t74 -31.5t31 -74.5t-31 -73.5t-74 -30.5t-74 30.5zM-91.5 678q14.5 15 14.5 35t-14 34.5t-34 14.5t-34 -14.5t-14 -34.5t14 -35t34 -15q19 0 33.5 15z" />
    <glyph glyph-name="uni0E4E" unicode="&#xe4e;" 
d="M-267 640.5q-26 21.5 -26 58.5q0 38 23 59t61 24q-18 17 -18 41q0 29 22.5 46.5t56.5 17.5q35 0 56 -13v-38q-20 14 -49 14q-38 0 -38 -30q0 -29 42 -38v-36q-19 5 -41 5q-33 0 -48.5 -12t-15.5 -38q0 -22 15 -33t43 -11q37 0 58 17v-39q-25 -16 -69 -16q-46 0 -72 21.5z
" />
    <glyph glyph-name="uni0E4F" unicode="&#xe4f;" horiz-adv-x="607" 
d="M174 17.5q-58 32.5 -91 90.5t-33 132t33 132t91 90.5t129 32.5t129 -32.5t91.5 -90.5t33.5 -132t-33.5 -132t-91.5 -90.5t-129 -32.5t-129 32.5zM402 68.5q44 24.5 69 69t25 102.5t-25 102.5t-69 68.5t-99 24t-98.5 -24.5t-68.5 -68.5t-25 -102t25 -102.5t68.5 -69
t98.5 -24.5t99 24.5zM194.5 129.5q-43.5 42.5 -43.5 110.5q0 45 20 79.5t55 54t78 19.5q42 0 77 -19.5t55 -54t20 -79.5t-20 -80t-55 -54t-77 -19q-66 0 -109.5 42.5zM373.5 168q26.5 27 26.5 72t-27 72t-69 27t-69.5 -27t-27.5 -72t27 -72t70 -27t69.5 27z" />
    <glyph glyph-name="uni0E50" unicode="&#xe50;" horiz-adv-x="636" 
d="M179 17q-61 32 -95 90t-34 133t34 133t95 90t139 32q77 0 138 -32t95.5 -90t34.5 -133t-34.5 -133t-95.5 -90t-138 -32q-78 0 -139 32zM416 69.5q43 23.5 68 67.5t25 103q0 58 -25 101.5t-68.5 67.5t-97.5 24t-97.5 -24t-68.5 -67.5t-25 -101.5q0 -59 25 -103t68 -67.5
t98 -23.5t98 23.5z" />
    <glyph glyph-name="uni0E51" unicode="&#xe51;" horiz-adv-x="634" 
d="M277 -18q117 27 173.5 86t56.5 163q0 202 -197 202q-87 0 -135 -44.5t-48 -123.5q0 -70 38.5 -106t107.5 -36q26 0 50 6t41 17v-59q-42 -25 -106 -25q-94 0 -151 55t-57 148q0 107 69.5 168.5t190.5 61.5q135 0 204.5 -70t69.5 -192q0 -121 -76.5 -202t-230.5 -117v68z
" />
    <glyph glyph-name="uni0E52" unicode="&#xe52;" horiz-adv-x="713" 
d="M146 47q-76 62 -76 193v310h70v-323q0 -89 58 -134.5t163 -45.5q87 0 149.5 41t62.5 136v139q0 36 -14 52.5t-44 16.5q-26 0 -44 -17t-27 -51h-51q-8 36 -21.5 52.5t-40.5 16.5q-32 0 -49.5 -28.5t-17.5 -86.5q0 -56 27.5 -83t74.5 -27q44 0 68 9v-61q-31 -8 -73 -8
q-75 0 -119.5 44t-44.5 126q0 79 33.5 128t93.5 49q72 0 95 -67q12 31 39 49t64 18q59 0 90 -32t31 -92v-145q0 -117 -77 -179t-205 -62q-139 0 -215 62z" />
    <glyph glyph-name="uni0E53" unicode="&#xe53;" horiz-adv-x="663" 
d="M139 13.5q-42 28.5 -65.5 84t-23.5 132.5q0 129 48.5 197t132.5 68q72 0 104 -55q18 25 49 40t66 15q61 0 102 -35.5t41 -96.5v-363h-77v357q0 76 -76 76q-31 0 -51.5 -18.5t-20.5 -49.5v-192h-69v192q0 33 -16.5 50.5t-47.5 17.5q-53 0 -80.5 -52.5t-27.5 -151.5
q0 -91 30.5 -136.5t83.5 -45.5q49 0 76 10v-63q-41 -9 -82 -9q-54 0 -96 28.5z" />
    <glyph glyph-name="uni0E54" unicode="&#xe54;" horiz-adv-x="629" 
d="M117 59q-67 59 -67 174q0 79 34 139t100.5 93.5t161.5 33.5q64 0 93.5 2.5t50.5 16.5t30 46h74q-19 -70 -69.5 -98.5t-152.5 -28.5q-126 0 -185.5 -49.5t-59.5 -155.5q0 -89 43.5 -128t126.5 -39h70q-25 15 -39.5 43t-14.5 63q0 62 42 99.5t112 37.5q60 0 95 -18v-62
q-13 8 -34.5 13t-44.5 5q-47 0 -70 -23t-23 -65q0 -93 115 -93h81v-65h-285q-117 0 -184 59z" />
    <glyph glyph-name="uni0E55" unicode="&#xe55;" horiz-adv-x="629" 
d="M117 59q-67 59 -67 174q0 112 62.5 179t173.5 79q-8 9 -13 22.5t-5 27.5q0 41 26 65t66 24t65 -24t25 -61q0 -27 -15 -44q36 2 56 16t29 47h74q-19 -70 -70 -98t-152 -28q-125 0 -185 -50t-60 -156q0 -89 43.5 -128t126.5 -39h70q-25 15 -39.5 43t-14.5 63q0 62 42 99.5
t112 37.5q60 0 95 -18v-62q-13 8 -34.5 13t-44.5 5q-47 0 -70 -23t-23 -65q0 -93 115 -93h81v-65h-285q-117 0 -184 59zM392 507q12 13 12 34q0 20 -11.5 32.5t-33.5 12.5q-20 0 -32 -13t-12 -32q0 -21 12 -34t32 -13q21 0 33 13z" />
    <glyph glyph-name="uni0E56" unicode="&#xe56;" horiz-adv-x="655" 
d="M213 1q-57 16 -91 46v66q87 -67 208 -67q89 0 143.5 50.5t54.5 140.5q0 91 -45 143.5t-137 52.5q-69 0 -121 -34.5t-76 -106.5h-57l-62 259h65l40 -174q27 56 84.5 87t135.5 31q124 0 187 -71.5t63 -186.5q0 -73 -34 -130.5t-96 -89.5t-143 -32q-62 0 -119 16z" />
    <glyph glyph-name="uni0E57" unicode="&#xe57;" horiz-adv-x="829" 
d="M139 13.5q-42 28.5 -65.5 84t-23.5 132.5q0 129 47.5 197t130.5 68q71 0 103 -55q18 26 48 40.5t66 14.5q61 0 99 -35.5t38 -96.5v-298q52 0 77 21t25 75v389h75v-375q0 -98 -50 -136.5t-141 -38.5h-60v357q0 39 -18.5 57.5t-55.5 18.5q-31 0 -51.5 -17.5t-20.5 -48.5
v-194h-65v194q0 66 -65 66q-52 0 -78.5 -52.5t-26.5 -151.5q0 -91 30.5 -136.5t83.5 -45.5q49 0 76 10v-63q-41 -9 -82 -9q-54 0 -96 28.5z" />
    <glyph glyph-name="uni0E58" unicode="&#xe58;" horiz-adv-x="657" 
d="M95.5 43.5q-45.5 58.5 -45.5 181.5q0 127 75.5 200.5t215.5 73.5q62 0 94 3t54 17t31 45h74q-19 -70 -71.5 -98.5t-155.5 -28.5q-119 0 -179.5 -51t-60.5 -161q0 -95 24 -136.5t76 -41.5q33 0 53 16t20 47v70h73v-70q0 -30 23 -46.5t53 -16.5q41 0 64 28t23 86
q0 47 -20.5 71t-54.5 24q-43 0 -67 -15v62q32 15 81 15q56 0 94 -41t38 -116q0 -84 -41.5 -130t-110.5 -46q-35 0 -68.5 13.5t-50.5 37.5q-16 -25 -46 -38t-67 -13q-82 0 -127.5 58.5z" />
    <glyph glyph-name="uni0E59" unicode="&#xe59;" horiz-adv-x="715" 
d="M140.5 13q-42.5 28 -66.5 83t-24 132q0 130 48.5 198.5t135.5 68.5q72 0 104 -55q36 55 106 55q47 0 77.5 -21t40.5 -62l57 138h66l-111 -271h-62l18 43q2 54 -19 82.5t-63 28.5q-71 0 -71 -58q0 -17 6 -38l99 -337h-67l-106 362q-11 37 -27.5 54t-51.5 17
q-52 0 -77.5 -53.5t-25.5 -151.5q0 -91 32 -136t89 -45q36 0 64 9v-63q-37 -8 -76 -8q-53 0 -95.5 28z" />
    <glyph glyph-name="uni0E5A" unicode="&#xe5a;" horiz-adv-x="833" 
d="M379 274q-29 -20 -68.5 -30t-83.5 -10q-78 0 -127.5 41t-49.5 116q0 76 45 117.5t116 41.5q53 0 84 -12v-59q-31 9 -66 9q-47 0 -74.5 -24t-27.5 -73t31 -72t84 -23q79 0 137 42v197h77v-204q35 -35 96 -35q76 0 134 42v197h77v-535h-77v274q-59 -40 -150 -40
q-23 0 -44 6t-36 18v-258h-77v274z" />
    <glyph glyph-name="uni0E5B" unicode="&#xe5b;" horiz-adv-x="1133" 
d="M121 49.5q-71 64.5 -71 188.5q0 74 28.5 132t81 91.5t122.5 33.5q103 0 157 -53t54 -143q0 -95 -46.5 -139t-118.5 -44q-51 0 -92 23v67q36 -26 87 -26q49 0 76 25t27 94q-1 64 -35 98t-109 34q-79 0 -122 -51t-43 -142q0 -98 51 -143.5t152 -45.5q121 0 177 61.5
t56 189.5v99h79l53 -185h2l32 171h62l49 -162h2l28 142h50l49 -132h2l21 57h101v-53h-73l-26 -78h-45l-45 119h-2l-36 -144h-48l-55 160h-2l-39 -181h-49l-53 190h-2q1 -12 1 -34q0 -86 -34.5 -150t-99.5 -99t-155 -35q-128 0 -199 64.5z" />
    <glyph glyph-name="uni0E24.short" horiz-adv-x="631" 
d="M484 341q0 75 -40.5 111t-120.5 36q-62 0 -106.5 -18t-83.5 -60l44 -69v-224q0 -29 11.5 -40.5t39.5 -11.5h58v-65h-90q-47 0 -71.5 26t-24.5 72v242l-50 79q50 64 116 97.5t157 33.5q116 0 177 -53t61 -149v-486h-77v479z" />
    <glyph glyph-name="uni0E26.short" horiz-adv-x="655" 
d="M508 341q0 147 -161 147q-62 0 -106.5 -18t-81.5 -58l62 -70v-244q0 -46 -24.5 -72t-71.5 -26h-75v65h45q29 0 39 10.5t10 41.5v223l-70 79q49 64 115.5 97.5t157.5 33.5q116 0 177 -53t61 -149v-486h-77v479z" />
    <glyph glyph-name="doChadathai.short" horiz-adv-x="655" 
d="M192 -84q23 24 67.5 40t89.5 16q94 0 159 -47v416q0 75 -40.5 111t-120.5 36q-61 0 -105.5 -18t-82.5 -58l62 -70v-244q0 -46 -24.5 -72t-71.5 -26h-75v65h40q30 0 42 11.5t12 40.5v223l-70 79q49 64 115.5 97.5t157.5 33.5q116 0 177 -53t61 -149v-494h-70
q-42 31 -80.5 44t-85.5 13q-44 0 -86 -16t-71 -46v67z" />
    <glyph glyph-name="toPatakthai.short" horiz-adv-x="655" 
d="M173.5 -141.5q-27.5 7.5 -44.5 20.5v60q20 -13 45.5 -20t51.5 -7q46 0 73 20t37 62h49l123 -73v420q0 147 -161 147q-62 0 -106.5 -18t-81.5 -58l62 -70v-244q0 -46 -24.5 -72t-71.5 -26h-75v65h40q30 0 42 11.5t12 40.5v223l-70 79q49 64 115.5 97.5t157.5 33.5
q116 0 177 -53t61 -149v-494h-74l-138 82q-35 -85 -143 -85q-29 0 -56.5 7.5z" />
    <glyph glyph-name="yoYingthai.less" horiz-adv-x="1000" 
d="M524.5 43q-60.5 58 -60.5 156v142q0 76 -37.5 111.5t-113.5 35.5q-58 0 -100 -18t-80 -60l44 -69v-224q0 -29 11.5 -40.5t39.5 -11.5h58v-65h-90q-47 0 -71.5 26t-24.5 72v242l-50 79q51 65 113.5 98t149.5 33q112 0 169.5 -53t57.5 -149v-146q0 -73 38.5 -114t118.5 -41
t118 41t38 114v333h77v-336q0 -98 -60.5 -156t-172.5 -58t-172.5 58z" />
    <glyph glyph-name="thoThanthai.less" horiz-adv-x="587" 
d="M83 294h76l57 -233q72 0 126 27t84 77t30 117q0 71 -19.5 116t-67 67.5t-130.5 22.5q-51 0 -102 -9.5t-87 -25.5v62q36 16 89.5 25.5t107.5 9.5q101 0 167 -33l52 58h86l-85 -96q66 -66 66 -197q0 -80 -40 -144.5t-108.5 -101t-150.5 -36.5h-79z" />
    <glyph glyph-name="loChulathai.short" horiz-adv-x="641" 
d="M70 535h77v-416l158 241h32l158 -241v254q0 62 -24 89t-91 27v45l114 180h87l-115 -181q60 -15 83 -54.5t23 -100.5v-378h-71l-180 280l-180 -280h-71v535z" />
    <glyph glyph-name="uni0E31.narrow" 
d="M-497.5 638.5q-20.5 17.5 -20.5 57.5v47h71v-39q0 -17 7.5 -24t26.5 -7h183v-52h-201q-46 0 -66.5 17.5z" />
    <glyph glyph-name="uni0E48.small" 
d="M-143 947h69v-129h-69v129z" />
    <glyph glyph-name="uni0E49.small" 
d="M-221 883q0 13 -4.5 17.5t-17.5 4.5h-42v53h63q55 0 55 -49v-36h166v-49h-220v59z" />
    <glyph glyph-name="uni0E49.narrow" 
d="M-459 683q0 13 -4.5 18t-17.5 5h-44v56h65q30 0 43.5 -14.5t13.5 -36.5v-37h185v-53h-241v62z" />
    <glyph glyph-name="uni0E4A.small" 
d="M-313 881q0 48 23.5 73.5t60.5 25.5q26 0 41 -9.5t23 -29.5q7 18 23.5 28t40.5 10q38 0 56 -20t18 -55v-54h8q16 0 22.5 7t6.5 24v95h43v-102q0 -35 -21 -50t-63 -15h-42v79q0 23 -7.5 33t-28.5 10q-39 0 -39 -45v-15h-36v14q0 46 -39 46q-19 0 -28 -11.5t-9 -37.5
q0 -18 6 -40t17 -37h-52q-24 34 -24 76z" />
    <glyph glyph-name="uni0E4A.narrow" 
d="M-583 707q0 52 23.5 80t62.5 28q28 0 43.5 -10.5t24.5 -31.5q17 41 67 41q39 0 57 -21t18 -63v-62h8q17 0 24.5 8t7.5 26v110h47v-102q0 -45 -20 -66.5t-69 -21.5h-42v82q0 33 -6.5 46t-29.5 13q-24 0 -32.5 -13.5t-8.5 -38.5v-16h-41v16q0 24 -8.5 38t-31.5 14
q-22 0 -31 -15t-9 -47q0 -41 27 -79h-55q-26 37 -26 85z" />
    <glyph glyph-name="uni0E4B.small" 
d="M-144 868h-62v58h62v51h71v-51h62v-58h-62v-50h-71v50z" />
    <glyph glyph-name="uni0E4C.small" 
d="M-259 847q0 68 71 68h179v-51h-148q-20 0 -27 -6.5t-7 -24.5v-32h-68v46z" />
    <glyph glyph-name="uni0E4C.narrow" 
d="M-478 671q0 35 18 52.5t58 17.5h188v-53h-158q-20 0 -27.5 -7t-7.5 -26v-34h-71v50z" />
    <glyph glyph-name="uni0E47.narrow" 
d="M-524.5 647q-29.5 29 -29.5 75q0 57 33 86.5t92 29.5h217v-46h-213q-37 0 -55 -16t-18 -49q0 -30 15.5 -45.5t43.5 -15.5q30 0 46 16t16 42h47q0 -26 15 -40t44 -14h43v-48h-42q-33 0 -55.5 14t-28.5 34q-8 -21 -33 -36.5t-58 -15.5q-50 0 -79.5 29z" />
    <glyph glyph-name="uni0E34.narrow" 
d="M-590 678h364v-57h-364v57z" />
    <glyph glyph-name="uni0E35.narrow" 
d="M-590 678h293v106h71v-163h-364v57z" />
    <glyph glyph-name="uni0E36.narrow" 
d="M-590 673h209q-5 6 -8 17t-3 22q0 41 26.5 64t67.5 23q46 0 69 -25t23 -62q0 -40 -28 -65.5t-73 -25.5h-283v52zM-265.5 678q12.5 13 12.5 34q0 20 -12.5 33t-33.5 13q-20 0 -33 -13t-13 -33q0 -21 12.5 -34t33.5 -13t33.5 13z" />
    <glyph glyph-name="uni0E37.narrow" 
d="M-590 673h156v111h62v-111h85v111h61v-163h-364v52z" />
    <glyph glyph-name="uni0E4D0E48" 
d="M-148 997h69v-129h-69v129zM-199 639.5q-31 30.5 -31 73.5t31 74.5t74 31.5t74 -31.5t31 -74.5t-31 -73.5t-74 -30.5t-74 30.5zM-91.5 678q14.5 15 14.5 35t-14 34.5t-34 14.5t-34 -14.5t-14 -34.5t14 -35t34 -15q19 0 33.5 15z" />
    <glyph glyph-name="uni0E4D0E49" 
d="M-224 927q0 13 -4.5 17.5t-17.5 4.5h-42v53h63q55 0 55 -49v-36h166v-49h-220v59zM-199 639.5q-31 30.5 -31 73.5t31 74.5t74 31.5t74 -31.5t31 -74.5t-31 -73.5t-74 -30.5t-74 30.5zM-91.5 678q14.5 15 14.5 35t-14 34.5t-34 14.5t-34 -14.5t-14 -34.5t14 -35t34 -15
q19 0 33.5 15z" />
    <glyph glyph-name="uni0E4D0E4A" 
d="M-291 940q0 48 23.5 73.5t60.5 25.5q26 0 41 -9.5t23 -29.5q7 18 23.5 28t40.5 10q38 0 56 -20t18 -55v-54h8q16 0 22.5 7t6.5 24v95h43v-102q0 -35 -21 -50t-63 -15h-42v79q0 23 -7.5 33t-28.5 10q-39 0 -39 -45v-15h-36v14q0 46 -39 46q-19 0 -28 -11.5t-9 -37.5
q0 -18 6 -40t17 -37h-52q-24 34 -24 76zM-199 639.5q-31 30.5 -31 73.5t31 74.5t74 31.5t74 -31.5t31 -74.5t-31 -73.5t-74 -30.5t-74 30.5zM-91.5 678q14.5 15 14.5 35t-14 34.5t-34 14.5t-34 -14.5t-14 -34.5t14 -35t34 -15q19 0 33.5 15z" />
    <glyph glyph-name="uni0E4D0E4B" 
d="M-154 918h-62v58h62v51h71v-51h62v-58h-62v-50h-71v50zM-199 639.5q-31 30.5 -31 73.5t31 74.5t74 31.5t74 -31.5t31 -74.5t-31 -73.5t-74 -30.5t-74 30.5zM-91.5 678q14.5 15 14.5 35t-14 34.5t-34 14.5t-34 -14.5t-14 -34.5t14 -35t34 -15q19 0 33.5 15z" />
    <glyph glyph-name="uni0E3A.small" 
d="M-139.5 -238.5q-13.5 13.5 -13.5 32.5t13.5 33t32.5 14t33 -14t14 -33t-14 -32.5t-33 -13.5t-32.5 13.5z" />
    <glyph glyph-name="uni0E38.small" 
d="M-141 -257q0 19 -7 24.5t-28 5.5h-31v65h71q39 0 52.5 -17t13.5 -60v-100h-71v82z" />
    <glyph glyph-name="uni0E39.small" 
d="M-272 -326q-31 25 -31 66v20q0 14 -4 18.5t-17 4.5h-35v55h76q25 0 34.5 -11.5t9.5 -36.5v-43q0 -49 53 -49q52 0 52 49v91h64v-96q0 -42 -30 -67.5t-84 -25.5q-57 0 -88 25z" />
    <glyph glyph-name="uni0E48.narrow" 
d="M-395 782h76v-161h-76v161z" />
    <glyph glyph-name="uni0E4B.narrow" 
d="M-399 678h-68v60h68v58h75v-58h68v-60h-68v-57h-75v57z" />
    <glyph glyph-name="uni0E4D.narrow" 
d="M-438 639.5q-31 30.5 -31 73.5t31 74.5t74 31.5t74 -31.5t31 -74.5t-31 -73.5t-74 -30.5t-74 30.5zM-324 672q17 18 17 41q0 24 -16.5 41t-40.5 17t-40.5 -17t-16.5 -41t16.5 -41.5t40.5 -17.5q23 0 40 18z" />
    <glyph glyph-name="uni0E4D0E48.narrow" 
d="M-398 997h69v-129h-69v129zM-438 639.5q-31 30.5 -31 73.5t31 74.5t74 31.5t74 -31.5t31 -74.5t-31 -73.5t-74 -30.5t-74 30.5zM-324 672q17 18 17 41q0 24 -16.5 41t-40.5 17t-40.5 -17t-16.5 -41t16.5 -41.5t40.5 -17.5q23 0 40 18z" />
    <glyph glyph-name="uni0E4D0E49.narrow" 
d="M-454 927q0 13 -4.5 17.5t-17.5 4.5h-42v53h63q55 0 55 -49v-36h166v-49h-220v59zM-438 639.5q-31 30.5 -31 73.5t31 74.5t74 31.5t74 -31.5t31 -74.5t-31 -73.5t-74 -30.5t-74 30.5zM-324 672q17 18 17 41q0 24 -16.5 41t-40.5 17t-40.5 -17t-16.5 -41t16.5 -41.5
t40.5 -17.5q23 0 40 18z" />
    <glyph glyph-name="uni0E4D0E4A.narrow" 
d="M-521 940q0 48 23.5 73.5t60.5 25.5q26 0 41 -9.5t23 -29.5q7 18 23.5 28t40.5 10q38 0 56 -20t18 -55v-54h8q16 0 22.5 7t6.5 24v95h43v-102q0 -35 -21 -50t-63 -15h-42v79q0 23 -7.5 33t-28.5 10q-39 0 -39 -45v-15h-36v14q0 46 -39 46q-19 0 -28 -11.5t-9 -37.5
q0 -18 6 -40t17 -37h-52q-24 34 -24 76zM-438 639.5q-31 30.5 -31 73.5t31 74.5t74 31.5t74 -31.5t31 -74.5t-31 -73.5t-74 -30.5t-74 30.5zM-324 672q17 18 17 41q0 24 -16.5 41t-40.5 17t-40.5 -17t-16.5 -41t16.5 -41.5t40.5 -17.5q23 0 40 18z" />
    <glyph glyph-name="uni0E4D0E4B.narrow" 
d="M-396 918h-62v58h62v51h71v-51h62v-58h-62v-50h-71v50zM-438 639.5q-31 30.5 -31 73.5t31 74.5t74 31.5t74 -31.5t31 -74.5t-31 -73.5t-74 -30.5t-74 30.5zM-324 672q17 18 17 41q0 24 -16.5 41t-40.5 17t-40.5 -17t-16.5 -41t16.5 -41.5t40.5 -17.5q23 0 40 18z" />
  </font>
</defs></svg>
