<?xml version="1.0" standalone="no"?>
<!DOCTYPE svg PUBLIC "-//W3C//DTD SVG 1.1//EN" "http://www.w3.org/Graphics/SVG/1.1/DTD/svg11.dtd" >
<svg xmlns="http://www.w3.org/2000/svg" xmlns:xlink="http://www.w3.org/1999/xlink" version="1.1">
<metadata>
Created by FontForge 20170731 at Tue May 24 20:51:59 2016
 By Aleksey,,,
Copyright (c) 2015, Cadson Demak (info@cadsondemak.com)
</metadata>
<defs>
<font id="Prompt-Regular" horiz-adv-x="0" >
  <font-face 
    font-family="Prompt"
    font-weight="400"
    font-stretch="normal"
    units-per-em="1000"
    panose-1="0 0 5 0 0 0 0 0 0 0"
    ascent="750"
    descent="-250"
    bbox="-607 -368 1090 1061"
    underline-thickness="50"
    underline-position="-150"
    unicode-range="U+0020-0E5B"
  />
<missing-glyph horiz-adv-x="504" 
d="M45 714h414v-714h-414v714zM403 53v607h-302v-607h302z" />
    <glyph glyph-name="ru_lakkhangyaothai" unicode="&#xe24;&#xe45;" horiz-adv-x="877" 
d="M473 335q0 69 -36.5 101.5t-109.5 32.5q-56 0 -97 -16t-76 -53l43 -67v-198q0 -28 11.5 -39t38.5 -11h56v-85h-106q-50 0 -76 28t-26 77v228l-50 81q53 67 121 101.5t161 34.5q86 0 144 -29q24 12 62.5 20.5t76.5 8.5q101 0 151.5 -54.5t50.5 -156.5v-535h-102v542
q0 64 -26 93.5t-92 29.5q-25 0 -52 -5q35 -49 35 -121v-539h-102v531z" />
    <glyph glyph-name="lu_lakkhangyaothai" unicode="&#xe26;&#xe45;" horiz-adv-x="895" 
d="M492 335q0 69 -37 101.5t-109 32.5q-55 0 -95.5 -15.5t-74.5 -50.5l60 -69v-229q0 -49 -26.5 -77t-76.5 -28h-88v85h42q27 0 37 10.5t10 39.5v198l-70 81q51 66 120 101t163 35q85 0 143 -29q24 12 62.5 20.5t76.5 8.5q101 0 151 -54.5t50 -156.5v-535h-102v542
q0 64 -26 93.5t-92 29.5q-24 0 -51 -5q35 -49 35 -121v-539h-102v531z" />
    <glyph glyph-name=".notdef" horiz-adv-x="504" 
d="M45 714h414v-714h-414v714zM403 53v607h-302v-607h302z" />
    <glyph glyph-name=".null" horiz-adv-x="500" 
 />
    <glyph glyph-name="nonmarkingreturn" horiz-adv-x="260" 
 />
    <glyph glyph-name="space" unicode=" " horiz-adv-x="370" 
 />
    <glyph glyph-name="uni0E01" unicode="&#xe01;" horiz-adv-x="640" 
d="M95 333l-50 81q53 67 121 101.5t161 34.5q120 0 184 -54.5t64 -152.5v-343h-102v335q0 69 -36.5 101.5t-109.5 32.5q-55 0 -97 -16.5t-76 -52.5l43 -67v-333h-102v333z" />
    <glyph glyph-name="uni0E02" unicode="&#xe02;" horiz-adv-x="582" 
d="M160 10q-53 25 -81.5 70.5t-28.5 104.5v34q0 34 14 62t41 65q19 25 28 41.5t9 31.5q0 19 -9.5 27t-31.5 8h-56v81h105q44 0 69.5 -25.5t25.5 -67.5q0 -29 -12 -53.5t-36 -59.5q-24 -36 -34.5 -58t-10.5 -48v-37q0 -58 33.5 -89.5t99.5 -31.5t98 32.5t32 91.5v346h102
v-329q0 -103 -61 -162t-171 -59q-72 0 -125 25z" />
    <glyph glyph-name="uni0E03" unicode="&#xe03;" horiz-adv-x="589" 
d="M166 9.5q-53 24.5 -81 69.5t-28 104v39q0 32 17 60t49 68q21 25 31 40t10 28v3q-20 -11 -48 -11q-34 0 -52.5 19.5t-18.5 57.5v48h73v-35q0 -16 7.5 -23.5t24.5 -7.5q20 0 33 13v53h79v-91q0 -32 -15 -61t-42 -65q-24 -33 -35 -54.5t-11 -42.5v-36q0 -57 33 -88.5
t99 -31.5q67 0 99 32.5t32 91.5v346h102v-329q0 -103 -61 -162t-172 -59q-72 0 -125 24.5z" />
    <glyph glyph-name="uni0E04" unicode="&#xe04;" horiz-adv-x="639" 
d="M65 331q0 104 68 161.5t187 57.5q118 0 186 -57t68 -162v-331h-102v334q0 68 -40 101.5t-112 33.5q-73 0 -113 -33.5t-40 -101.5v-102q13 24 41 38.5t66 14.5h80v-84h-88q-42 0 -70.5 -29.5t-28.5 -67.5v-104h-102v331z" />
    <glyph glyph-name="uni0E05" unicode="&#xe05;" horiz-adv-x="639" 
d="M65 367q0 86 33 134.5t111 48.5q40 0 68 -16t42 -45q15 30 43.5 45.5t67.5 15.5q78 0 111 -48.5t33 -134.5v-367h-102v381q0 46 -12.5 67t-47.5 21q-27 0 -41 -14.5t-22 -47.5h-60q-7 33 -20.5 47.5t-41.5 14.5q-34 0 -47 -21t-13 -66v-150q13 24 41 38.5t66 14.5h80v-84
h-88q-42 0 -70.5 -29t-28.5 -68v-104h-102v367z" />
    <glyph glyph-name="uni0E06" unicode="&#xe06;" horiz-adv-x="620" 
d="M244.5 6.5q-50.5 21.5 -89.5 65.5v-72h-98v212q0 34 17 64t50 73q20 24 30 40.5t10 28.5v3q-20 -11 -48 -11q-34 0 -52.5 19.5t-18.5 57.5v48h73v-35q0 -16 7.5 -23.5t24.5 -7.5q20 0 33 13v53h79v-93q0 -31 -14.5 -59t-41.5 -67q-25 -36 -36 -57.5t-11 -44.5v-57
q59 -92 162 -92q132 0 132 121v349h102v-353q0 -87 -55 -142t-152 -55q-53 0 -103.5 21.5z" />
    <glyph glyph-name="uni0E07" unicode="&#xe07;" horiz-adv-x="619" 
d="M45 468h102l127 -388q94 0 145 52t51 147q0 94 -35 142t-112 48q-36 0 -70 -9v79q40 11 87 11q114 0 174 -72t60 -199q0 -87 -37.5 -150t-101.5 -96t-142 -33h-96z" />
    <glyph glyph-name="uni0E08" unicode="&#xe08;" horiz-adv-x="587" 
d="M72 294h101l52 -214q97 0 155.5 52.5t58.5 145.5q0 101 -48 146t-158 45q-50 0 -101.5 -9.5t-86.5 -25.5v80q37 17 90.5 26.5t109.5 9.5q142 0 219.5 -68t77.5 -204q0 -79 -40 -142.5t-108.5 -99.5t-150.5 -36h-99z" />
    <glyph glyph-name="uni0E09" unicode="&#xe09;" horiz-adv-x="608" 
d="M109.5 36.5q-50.5 51.5 -50.5 141.5v128h102v-122q0 -60 30.5 -89.5t93.5 -29.5q102 0 156 92v132q0 93 -43 136.5t-149 43.5q-54 0 -111 -9.5t-93 -25.5v80q37 16 96.5 26t116.5 10q148 0 216.5 -64.5t68.5 -192.5v-293h-98v72q-33 -44 -82.5 -65.5t-106.5 -21.5
q-96 0 -146.5 51.5z" />
    <glyph glyph-name="uni0E0A" unicode="&#xe0a;" horiz-adv-x="584" 
d="M163 10q-54 25 -83.5 70.5t-29.5 104.5v34q0 34 15 63.5t41 64.5q19 26 27.5 42t8.5 30q0 19 -9.5 27t-31.5 8h-56v81h105q44 0 69.5 -25.5t25.5 -67.5q0 -29 -12 -53.5t-36 -59.5q-24 -36 -34.5 -58t-10.5 -48v-37q0 -57 36 -89t100 -32q68 0 106 37t38 109t-30 108
t-88 36v55l107 140h110l-113 -149q61 -23 88.5 -70.5t27.5 -119.5q0 -69 -30.5 -120t-86.5 -78.5t-129 -27.5q-71 0 -125 25z" />
    <glyph glyph-name="uni0E0B" unicode="&#xe0b;" horiz-adv-x="591" 
d="M170 10q-54 25 -83.5 70t-29.5 103v39q0 32 17 60t49 68q21 25 31 40t10 28v3q-20 -11 -48 -11q-34 0 -52.5 19.5t-18.5 57.5v48h73v-35q0 -16 7.5 -23.5t24.5 -7.5q20 0 33 13v53h79v-91q0 -32 -15 -61t-42 -65q-24 -33 -35 -54.5t-11 -42.5v-36q0 -56 36 -88t100 -32
q67 0 105.5 37t38.5 109t-30 108t-88 36v55l106 140h111l-114 -149q61 -23 89 -70.5t28 -119.5q0 -68 -31 -119.5t-86.5 -79t-128.5 -27.5q-71 0 -125 25z" />
    <glyph glyph-name="uni0E0C" unicode="&#xe0c;" horiz-adv-x="996" 
d="M635.5 5.5q-47.5 20.5 -84.5 64.5v-70h-98v335q0 69 -33.5 101.5t-102.5 32.5q-52 0 -90.5 -16t-72.5 -53l43 -67v-198q0 -28 11.5 -39t38.5 -11h56v-85h-106q-50 0 -76 28t-26 77v228l-50 81q53 67 118 101.5t154 34.5q116 0 176.5 -54.5t60.5 -152.5v-186
q59 -92 153 -92q63 0 92.5 30t29.5 91v349h102v-353q0 -88 -52 -142.5t-145 -54.5q-51 0 -98.5 20.5z" />
    <glyph glyph-name="uni0E0D" unicode="&#xe0d;" horiz-adv-x="1005" 
d="M597 -86.5q-53 11.5 -84 30.5v85q84 -47 190 -47q71 0 112 19t41 57q0 30 -19 50q-27 -17 -65.5 -27t-80.5 -10q-115 0 -176.5 59t-61.5 159v46q0 69 -33.5 101.5t-102.5 32.5q-52 0 -90.5 -16t-72.5 -53l43 -67v-198q0 -28 11.5 -39t38.5 -11h56v-85h-106q-50 0 -76 28
t-26 77v228l-50 81q53 67 118 101.5t154 34.5q116 0 176.5 -54.5t60.5 -152.5v-50q0 -69 32 -105.5t105 -36.5t109.5 38.5t36.5 105.5v240h102v-246q0 -75 -37 -127q25 -22 36.5 -47t11.5 -57q0 -75 -68.5 -115.5t-178.5 -40.5q-53 0 -106 11.5z" />
    <glyph glyph-name="uni0E0E" unicode="&#xe0e;" horiz-adv-x="659" 
d="M182 -141q25 25 70 40t91 15q91 0 149 -39v460q0 69 -37 101.5t-109 32.5q-55 0 -95.5 -15.5t-74.5 -50.5l60 -69v-229q0 -49 -26.5 -77t-76.5 -28h-88v85h42q27 0 37 10.5t10 39.5v198l-70 81q51 66 120 101t163 35q119 0 183 -54.5t64 -152.5v-564h-91
q-39 30 -76.5 42.5t-83.5 12.5q-45 0 -88 -16t-73 -45v86z" />
    <glyph glyph-name="uni0E0F" unicode="&#xe0f;" horiz-adv-x="659" 
d="M167 -216q-28 8 -47 21v79q44 -28 99 -28q87 0 103 77h60l110 -65v467q0 69 -37 101.5t-109 32.5q-55 0 -95.5 -15.5t-74.5 -50.5l60 -69v-229q0 -49 -26.5 -77t-76.5 -28h-88v85h42q27 0 37 10.5t10 39.5v198l-70 81q51 66 120 101t163 35q119 0 183 -54.5t64 -152.5
v-564h-97l-129 75q-38 -78 -143 -78q-30 0 -58 8z" />
    <glyph glyph-name="uni0E10" unicode="&#xe10;" horiz-adv-x="605" 
d="M72 294h101l52 -214q97 0 155.5 52.5t58.5 145.5q0 101 -48 146t-158 45q-50 0 -101.5 -9.5t-86.5 -25.5v80q37 17 90.5 26.5t109.5 9.5q96 0 162 -31l50 56h113l-93 -106q65 -68 65 -191q0 -79 -40 -142.5t-108.5 -99.5t-150.5 -36h-99zM100.5 -216q-29.5 8 -48.5 21v74
q42 -27 99 -27q44 0 68.5 18.5t34.5 59.5h54l116 -70v93h102v-174h-95l-130 78q-20 -44 -54 -62.5t-87 -18.5q-30 0 -59.5 8z" />
    <glyph glyph-name="uni0E11" unicode="&#xe11;" horiz-adv-x="626" 
d="M70 222q0 32 14.5 60t42.5 68q18 24 26.5 39.5t8.5 28.5v3q-18 -11 -47 -11q-70 0 -70 77v48h73v-35q0 -16 7.5 -23.5t24.5 -7.5q20 0 33 13v53h79v-41q24 27 63 41.5t80 14.5q156 0 156 -178v-372h-102v383q0 43 -18.5 64.5t-59.5 21.5q-82 0 -128 -64q-6 -22 -15 -39
t-27 -45q-20 -31 -29.5 -52t-9.5 -48v-221h-102v222z" />
    <glyph glyph-name="uni0E12" unicode="&#xe12;" horiz-adv-x="1038" 
d="M114.5 53.5q-69.5 68.5 -69.5 199.5q0 91 23.5 158t66.5 103t98 36q73 0 106 -61q17 31 49 46t74 15q69 0 102 -43.5t33 -118.5v-231q59 -92 152 -92q63 0 93 30t30 91v349h101v-353q0 -88 -51.5 -142.5t-145.5 -54.5q-51 0 -98 20.5t-84 64.5v-70h-98v381q0 46 -13 67
t-47 21q-28 0 -44 -15.5t-23 -46.5h-60q-11 62 -58 62q-53 0 -78 -62t-25 -154q0 -188 171 -188q37 0 70 10v-79q-35 -11 -87 -11q-118 0 -187.5 68.5z" />
    <glyph glyph-name="uni0E13" unicode="&#xe13;" horiz-adv-x="996" 
d="M505 39.5q-52 54.5 -52 142.5v153q0 69 -33.5 101.5t-102.5 32.5q-52 0 -90.5 -16t-72.5 -53l43 -67v-170q0 -46 9 -62t41 -16h56v-85h-106q-50 0 -76 28t-26 77v228l-50 81q53 67 118 101.5t154 34.5q116 0 176.5 -54.5t60.5 -152.5v-157q0 -121 123 -121q48 0 87 23
t65 69v378h102v-535h-98v70q-67 -85 -183 -85q-93 0 -145 54.5z" />
    <glyph glyph-name="uni0E14" unicode="&#xe14;" horiz-adv-x="675" 
d="M113.5 53q-68.5 68 -68.5 200q0 92 35.5 159t101.5 102.5t157 35.5q141 0 206 -66.5t65 -169.5v-314h-102v315q0 154 -169 154q-89 0 -140 -56t-51 -160q0 -96 43 -142t128 -46q38 0 70 10v-79q-35 -11 -87 -11q-120 0 -188.5 68z" />
    <glyph glyph-name="uni0E15" unicode="&#xe15;" horiz-adv-x="675" 
d="M113.5 53q-68.5 68 -68.5 200q0 91 25 158t68.5 103t99.5 36q76 0 107 -61q17 31 51 46t76 15q69 0 103.5 -44t34.5 -118v-388h-102v381q0 45 -14 66.5t-48 21.5q-57 0 -71 -62h-60q-5 31 -19.5 46.5t-41.5 15.5q-47 0 -76.5 -56t-29.5 -160q0 -96 42 -142t129 -46
q38 0 70 10v-79q-35 -11 -87 -11q-120 0 -188.5 68z" />
    <glyph glyph-name="uni0E16" unicode="&#xe16;" horiz-adv-x="640" 
d="M121 28q-26 28 -26 77v228l-50 81q53 67 121 101.5t161 34.5q120 0 184 -54.5t64 -152.5v-343h-102v335q0 69 -36.5 101.5t-109.5 32.5q-56 0 -97 -16t-76 -53l43 -67v-198q0 -28 11.5 -39t38.5 -11h56v-85h-106q-50 0 -76 28z" />
    <glyph glyph-name="uni0E17" unicode="&#xe17;" horiz-adv-x="628" 
d="M65 535h98v-72q39 44 91.5 65.5t106.5 21.5q98 0 150 -54t52 -139v-357h-102v352q0 56 -31 86.5t-96 30.5q-109 0 -167 -91v-378h-102v535z" />
    <glyph glyph-name="uni0E18" unicode="&#xe18;" horiz-adv-x="558" 
d="M112 27.5q-65 42.5 -65 117.5v67h101v-61q0 -45 36.5 -66.5t98.5 -21.5t95.5 20t33.5 61q0 33 -15 51t-46.5 29.5t-102.5 28.5q-68 16 -110.5 33.5t-67.5 46.5t-25 75q0 73 63.5 107.5t164.5 34.5q58 0 116 -12.5t92 -31.5v-84q-37 22 -90 34.5t-107 12.5
q-68 0 -102.5 -12t-34.5 -49q0 -22 16 -36t43 -23.5t81 -23.5l36 -10q70 -19 110 -38.5t60 -51t20 -81.5q0 -72 -60 -115.5t-170 -43.5q-106 0 -171 42.5z" />
    <glyph glyph-name="uni0E19" unicode="&#xe19;" horiz-adv-x="628" 
d="M119.5 40q-54.5 55 -54.5 142v353h102v-349q0 -60 33.5 -90.5t98.5 -30.5q103 0 162 92v378h102v-535h-99v72q-75 -87 -192 -87q-98 0 -152.5 55z" />
    <glyph glyph-name="uni0E1A" unicode="&#xe1a;" horiz-adv-x="643" 
d="M186 13q-58 28 -89.5 78.5t-31.5 115.5v328h102v-326q0 -67 39.5 -105.5t115.5 -38.5q75 0 114.5 38.5t39.5 105.5v326h102v-328q0 -65 -31.5 -115.5t-89.5 -78.5t-135 -28q-78 0 -136 28z" />
    <glyph glyph-name="uni0E1B" unicode="&#xe1b;" horiz-adv-x="643" 
d="M186 13q-58 28 -89.5 78.5t-31.5 115.5v328h102v-326q0 -67 39.5 -105.5t115.5 -38.5q75 0 114.5 38.5t39.5 105.5v505h102v-507q0 -65 -31.5 -115.5t-89.5 -78.5t-135 -28q-78 0 -136 28z" />
    <glyph glyph-name="uni0E1C" unicode="&#xe1c;" horiz-adv-x="644" 
d="M65 426q0 53 28 81t80 28h79v-86h-36q-27 0 -38.5 -11.5t-11.5 -39.5v-249l134 218h44l134 -218v386h101v-535h-92l-165 269l-165 -269h-92v426z" />
    <glyph glyph-name="uni0E1D" unicode="&#xe1d;" horiz-adv-x="644" 
d="M65 426q0 53 28 81t80 28h79v-86h-36q-27 0 -38.5 -11.5t-11.5 -39.5v-249l134 218h44l134 -218v565h101v-714h-92l-165 269l-165 -269h-92v426z" />
    <glyph glyph-name="uni0E1E" unicode="&#xe1e;" horiz-adv-x="778" 
d="M35 535h102l97 -392l116 392h78l115 -392l98 392h102l-149 -535h-86l-119 402l-120 -402h-86z" />
    <glyph glyph-name="uni0E1F" unicode="&#xe1f;" horiz-adv-x="757" 
d="M35 535h102l97 -392l116 392h78l115 -392l129 571h100l-178 -714h-86l-119 402l-120 -402h-86z" />
    <glyph glyph-name="uni0E20" unicode="&#xe20;" horiz-adv-x="659" 
d="M45 85h42q27 0 37 10.5t10 39.5v198l-70 81q51 66 120 101t163 35q119 0 183 -54.5t64 -152.5v-343h-102v335q0 69 -37 101.5t-109 32.5q-55 0 -95.5 -15.5t-74.5 -50.5l60 -69v-229q0 -49 -26.5 -77t-76.5 -28h-88v85z" />
    <glyph glyph-name="uni0E21" unicode="&#xe21;" horiz-adv-x="628" 
d="M251.5 7q-49.5 22 -88.5 65v-72h-98v535h102v-378q59 -92 162 -92q65 0 98.5 30.5t33.5 90.5v349h102v-353q0 -87 -55 -142t-152 -55q-55 0 -104.5 22z" />
    <glyph glyph-name="uni0E22" unicode="&#xe22;" horiz-adv-x="631" 
d="M114 29q-69 44 -69 128q0 44 24.5 77.5t65.5 46.5q-39 17 -62.5 49t-23.5 74q0 66 44 106t129 40q24 0 49 -3.5t40 -7.5v-80q-13 5 -33.5 7.5t-37.5 2.5q-43 0 -65.5 -18.5t-22.5 -52.5q0 -36 24 -55t71 -19h64v-84h-63q-48 0 -74 -20.5t-26 -62.5q0 -44 40.5 -68
t110.5 -24q165 0 165 140v330h102v-328q0 -56 -26 -106.5t-85.5 -83t-155.5 -32.5q-116 0 -185 44z" />
    <glyph glyph-name="uni0E23" unicode="&#xe23;" horiz-adv-x="511" 
d="M137 -2.5q-57 12.5 -89 36.5v82q43 -26 94.5 -39.5t98.5 -13.5q66 0 95 15.5t29 53.5q0 26 -14 42t-42.5 28t-89.5 30q-88 27 -131 63.5t-43 101.5q0 74 57 113.5t156 39.5q51 0 98.5 -11.5t78.5 -30.5v-84q-34 21 -78 33t-90 12q-120 0 -120 -72q0 -27 16.5 -43
t44 -26.5t92.5 -29.5q64 -19 100 -41t51 -52t15 -74q0 -66 -54 -106t-163 -40q-55 0 -112 12.5z" />
    <glyph glyph-name="uni0E24" unicode="&#xe24;" horiz-adv-x="640" 
d="M473 335q0 69 -36.5 101.5t-109.5 32.5q-56 0 -97 -16t-76 -53l43 -67v-198q0 -28 11.5 -39t38.5 -11h56v-85h-106q-50 0 -76 28t-26 77v228l-50 81q53 67 121 101.5t161 34.5q120 0 184 -54.5t64 -152.5v-539h-102v531z" />
    <glyph glyph-name="uni0E25" unicode="&#xe25;" horiz-adv-x="607" 
d="M97.5 29.5q-52.5 44.5 -52.5 126.5q0 81 58.5 129t158.5 48q99 0 178 -37v41q0 69 -37.5 100.5t-124.5 31.5q-48 0 -94 -9t-80 -25v80q31 15 84.5 25t104.5 10q125 0 187 -57t62 -154v-339h-102v215q-73 37 -167 37q-65 0 -95.5 -24t-30.5 -72q0 -91 117 -91q36 0 63 10
v-79q-36 -11 -88 -11q-89 0 -141.5 44.5z" />
    <glyph glyph-name="uni0E26" unicode="&#xe26;" horiz-adv-x="659" 
d="M492 335q0 69 -37 101.5t-109 32.5q-55 0 -95.5 -15.5t-74.5 -50.5l60 -69v-229q0 -49 -26.5 -77t-76.5 -28h-88v85h42q27 0 37 10.5t10 39.5v198l-70 81q51 66 120 101t163 35q119 0 183 -54.5t64 -152.5v-539h-102v531z" />
    <glyph glyph-name="uni0E27" unicode="&#xe27;" horiz-adv-x="576" 
d="M45 30v82q67 -47 175 -47q98 0 152.5 51t54.5 151t-54.5 151t-152.5 51q-105 0 -173 -47v83q70 45 193 45q135 0 213 -74.5t78 -208.5t-78 -208t-213 -74q-126 0 -195 45z" />
    <glyph glyph-name="uni0E28" unicode="&#xe28;" horiz-adv-x="643" 
d="M65 331q0 104 68 161.5t187 57.5q77 0 132 -24l43 49h113l-86 -98q52 -57 52 -146v-331h-102v334q0 68 -40 101.5t-112 33.5q-73 0 -113 -33.5t-40 -101.5v-102q13 24 41 38.5t66 14.5h80v-84h-88q-42 0 -70.5 -29.5t-28.5 -67.5v-104h-102v331z" />
    <glyph glyph-name="uni0E29" unicode="&#xe29;" horiz-adv-x="656" 
d="M186 13q-58 28 -89.5 78.5t-31.5 115.5v328h102v-326q0 -67 39.5 -105.5t115.5 -38.5q75 0 114.5 38.5t39.5 105.5v61h-127v84h127v181h102v-181h58v-84h-58v-63q0 -65 -31.5 -115.5t-89.5 -78.5t-135 -28q-78 0 -136 28z" />
    <glyph glyph-name="uni0E2A" unicode="&#xe2a;" horiz-adv-x="622" 
d="M97.5 29.5q-52.5 44.5 -52.5 126.5q0 81 58.5 129t158.5 48q99 0 178 -37v41q0 69 -37.5 100.5t-124.5 31.5q-48 0 -94 -9t-80 -25v80q31 15 84.5 25t104.5 10q90 0 150 -33l51 58h113l-101 -113q36 -51 36 -123v-339h-102v215q-73 37 -167 37q-65 0 -95.5 -24t-30.5 -72
q0 -91 117 -91q36 0 63 10v-79q-36 -11 -88 -11q-89 0 -141.5 44.5z" />
    <glyph glyph-name="uni0E2B" unicode="&#xe2b;" horiz-adv-x="611" 
d="M65 535h102v-236l259 236h119l-146 -133q82 -21 114.5 -67t32.5 -123v-212h-102v206q0 60 -24.5 91t-84.5 44l-168 -153v-188h-102v535z" />
    <glyph glyph-name="uni0E2C" unicode="&#xe2c;" horiz-adv-x="655" 
d="M65 535h101v-381l138 236h43l138 -236v247q0 57 -23.5 81.5t-86.5 24.5v57l112 150h113l-116 -156q58 -16 80.5 -54.5t22.5 -101.5v-402h-93l-168 288l-169 -288h-92v535z" />
    <glyph glyph-name="uni0E2D" unicode="&#xe2d;" horiz-adv-x="609" 
d="M143 -0.5q-58 14.5 -98 40.5v266h222v-82h-120v-133q43 -26 116 -26q96 0 146.5 53t50.5 154t-51.5 149t-168.5 48q-53 0 -104 -10.5t-86 -33.5v81q39 22 92 33t114 11q150 0 229 -73t79 -205q0 -133 -78.5 -210t-222.5 -77q-62 0 -120 14.5z" />
    <glyph glyph-name="uni0E2E" unicode="&#xe2e;" horiz-adv-x="618" 
d="M143 -0.5q-58 14.5 -98 40.5v266h222v-82h-120v-133q43 -26 116 -26q96 0 146.5 53t50.5 154q0 102 -52.5 149.5t-167.5 47.5q-53 0 -104 -10.5t-86 -33.5v81q39 22 92 33t114 11q102 0 172 -39l57 64h113l-102 -116q68 -76 68 -187q0 -133 -78.5 -210t-222.5 -77
q-62 0 -120 14.5z" />
    <glyph glyph-name="uni0E2F" unicode="&#xe2f;" horiz-adv-x="528" 
d="M361 258q-58 -36 -152 -36q-81 0 -132.5 42.5t-51.5 120.5t47 121.5t122 43.5q56 0 89 -13v-77q-29 9 -62 9q-43 0 -68 -20.5t-25 -63.5q0 -83 104 -83q75 0 129 39v194h102v-535h-102v258z" />
    <glyph glyph-name="uni0E30" unicode="&#xe30;" horiz-adv-x="331" 
d="M63 345q-18 20 -18 61v57h92v-38q0 -16 7 -22.5t25 -6.5h117v-71h-161q-44 0 -62 20zM63 72q-18 20 -18 61v57h92v-38q0 -16 7 -22.5t25 -6.5h117v-71h-161q-44 0 -62 20z" />
    <glyph glyph-name="uni0E31" unicode="&#xe31;" 
d="M-315.5 635.5q-19.5 21.5 -19.5 64.5v52h92v-40q0 -17 6.5 -23t24.5 -6h236v-69h-277q-43 0 -62.5 21.5z" />
    <glyph glyph-name="uni0E32" unicode="&#xe32;" horiz-adv-x="420" 
d="M253 346q0 64 -26 93.5t-92 29.5q-64 0 -120 -28v80q24 12 62.5 20.5t76.5 8.5q101 0 151 -54.5t50 -156.5v-339h-102v346z" />
    <glyph glyph-name="uni0E33" unicode="&#xe33;" horiz-adv-x="424" 
d="M-206.5 617q-32.5 32 -32.5 77q0 46 32.5 78.5t77.5 32.5t77.5 -32.5t32.5 -78.5q0 -45 -32.5 -77t-77.5 -32t-77.5 32zM-97.5 661.5q13.5 14.5 13.5 32.5t-13.5 32t-31.5 14t-31.5 -14t-13.5 -32t13.5 -32.5t31.5 -14.5t31.5 14.5zM257 346q0 64 -26 93.5t-92 29.5
q-65 0 -121 -28v80q24 12 62.5 20.5t76.5 8.5q101 0 151.5 -54.5t50.5 -156.5v-339h-102v346z" />
    <glyph glyph-name="uni0E34" unicode="&#xe34;" 
d="M-498 683h432v-69h-432v69z" />
    <glyph glyph-name="uni0E35" unicode="&#xe35;" 
d="M-498 683h339v107h93v-176h-432v69z" />
    <glyph glyph-name="uni0E36" unicode="&#xe36;" 
d="M-497 681h262q-8 18 -6 43q4 36 31 58t66 22q47 0 72.5 -27t25.5 -66q0 -42 -29.5 -69.5t-77.5 -27.5h-344v67zM-111.5 678.5q13.5 13.5 13.5 32.5t-13.5 32.5t-32.5 13.5t-32 -13.5t-13 -32.5q0 -20 13 -33t32 -13t32.5 13.5z" />
    <glyph glyph-name="uni0E37" unicode="&#xe37;" 
d="M-497 681h201v109h75v-109h81v109h74v-176h-431v67z" />
    <glyph glyph-name="uni0E38" unicode="&#xe38;" 
d="M-158 -161q0 18 -6.5 24.5t-25.5 6.5h-33v73h82q45 0 60.5 -18t15.5 -64v-124h-93v102z" />
    <glyph glyph-name="uni0E39" unicode="&#xe39;" 
d="M-285.5 -245q-34.5 26 -34.5 70v27q0 14 -4 18.5t-17 4.5h-34v68h88q27 0 37 -12t10 -39v-57q0 -44 48 -44q47 0 47 44v108h80v-115q0 -44 -32.5 -71.5t-91.5 -27.5q-62 0 -96.5 26z" />
    <glyph glyph-name="uni0E3A" unicode="&#xe3a;" 
d="M-155 -148.5q-17 16.5 -17 39.5t17 40t40 17t40 -17t17 -40t-17 -39.5t-40 -16.5t-40 16.5z" />
    <glyph glyph-name="uni0E3F" unicode="&#xe3f;" horiz-adv-x="649" 
d="M261 0h-196v699h196v103h89v-103h36q93 0 144 -48t51 -140q0 -52 -24.5 -91.5t-64.5 -58.5q112 -33 112 -163q0 -61 -26.5 -105.5t-72.5 -68.5t-102 -24h-53v-103h-89v103zM261 399v217h-94v-217h94zM373 399q49 0 77 27t28 80q0 61 -27.5 85.5t-84.5 24.5h-16v-217h23z
M261 83v232h-94v-232h94zM380 83q59 0 90 26t31 89t-32.5 90t-97.5 27h-21v-232h30z" />
    <glyph glyph-name="uni0E40" unicode="&#xe40;" horiz-adv-x="297" 
d="M90.5 27.5q-25.5 27.5 -25.5 77.5v430h102v-402q0 -27 11 -37.5t38 -10.5h36v-85h-87q-49 0 -74.5 27.5z" />
    <glyph glyph-name="uni0E41" unicode="&#xe41;" horiz-adv-x="555" 
d="M90.5 27.5q-25.5 27.5 -25.5 77.5v430h102v-402q0 -27 11 -37.5t38 -10.5h36v-85h-87q-49 0 -74.5 27.5zM348 28q-26 28 -26 77v430h102v-402q0 -27 11.5 -37.5t38.5 -10.5h36v-85h-88q-48 0 -74 28z" />
    <glyph glyph-name="uni0E42" unicode="&#xe42;" horiz-adv-x="330" 
d="M139.5 27.5q-25.5 27.5 -25.5 77.5v384q0 73 -27 114t-87 66v83h315v-86h-179q41 -27 60.5 -72t19.5 -108v-353q0 -27 11 -37.5t38 -10.5h36v-85h-87q-49 0 -74.5 27.5z" />
    <glyph glyph-name="uni0E43" unicode="&#xe43;" horiz-adv-x="302" 
d="M94.5 27.5q-25.5 27.5 -25.5 77.5v271q0 51 18 85.5t52 74.5q23 26 33.5 44t10.5 38q0 33 -17.5 48t-60.5 15q-61 0 -110 -34v80q29 17 65.5 26t75.5 9q76 0 113.5 -37t37.5 -96q0 -32 -13.5 -56.5t-40.5 -56.5q-31 -37 -46.5 -66t-15.5 -71v-246q0 -27 11 -37.5
t38 -10.5h36v-85h-87q-49 0 -74.5 27.5z" />
    <glyph glyph-name="uni0E44" unicode="&#xe44;" horiz-adv-x="330" 
d="M124.5 28.5q-25.5 27.5 -25.5 77.5v379q0 67 19 110t64 71h-182v86h315v-82q-60 -26 -87 -67t-27 -114v-354q0 -27 11 -37.5t38 -10.5h36v-86h-87q-49 0 -74.5 27.5z" />
    <glyph glyph-name="uni0E45" unicode="&#xe45;" horiz-adv-x="420" 
d="M253 346q0 64 -26 93.5t-92 29.5q-64 0 -120 -28v80q24 12 62.5 20.5t76.5 8.5q101 0 151 -54.5t50 -156.5v-535h-102v542z" />
    <glyph glyph-name="uni0E46" unicode="&#xe46;" horiz-adv-x="598" 
d="M431 388q0 43 -13 62t-46 19q-29 0 -44 -15.5t-20 -46.5h-61q-5 33 -15.5 47.5t-37.5 14.5q-31 0 -48.5 -26.5t-17.5 -79.5q0 -92 95 -92q40 0 70 10v-79q-40 -11 -87 -11q-79 0 -130 42t-51 130q0 84 38 135.5t113 51.5q73 0 103 -61q30 61 109 61t112 -45t33 -126v-379
h-102v388z" />
    <glyph glyph-name="uni0E47" unicode="&#xe47;" 
d="M-436 640q-31 30 -31 78q0 61 35 92t96 31h237v-58h-230q-34 0 -50.5 -14t-16.5 -44q0 -27 14 -41t39 -14q28 0 42.5 15t14.5 40h58q0 -51 56 -51h56v-60h-55q-33 0 -57 13.5t-30 33.5q-8 -20 -34 -35.5t-60 -15.5q-53 0 -84 30z" />
    <glyph glyph-name="uni0E48" unicode="&#xe48;" 
d="M-164 781h101v-167h-101v167z" />
    <glyph glyph-name="uni0E49" unicode="&#xe49;" 
d="M-280 677q0 12 -4.5 17t-16.5 5h-45v72h75q32 0 46.5 -15.5t14.5 -38.5v-35h205v-68h-275v63z" />
    <glyph glyph-name="uni0E4A" unicode="&#xe4a;" 
d="M-481 702q0 53 26 83t68 30q29 0 46 -10.5t26 -30.5q19 40 71 40q79 0 79 -87v-55h15q16 0 22.5 7t6.5 25v107h59v-105q0 -92 -94 -92h-64v85q0 25 -7 37t-26 12q-22 0 -29.5 -11.5t-7.5 -34.5v-17h-49v16q0 47 -35 47q-21 0 -30.5 -13t-9.5 -42q0 -42 26 -79h-68
q-25 38 -25 88z" />
    <glyph glyph-name="uni0E4B" unicode="&#xe4b;" 
d="M-206 664h-64v78h64v51h99v-51h65v-78h-65v-50h-99v50z" />
    <glyph glyph-name="uni0E4C" unicode="&#xe4c;" 
d="M-304 671q0 78 85 78h221v-67h-181q-18 0 -25 -7t-7 -25v-36h-93v57z" />
    <glyph glyph-name="uni0E4D" unicode="&#xe4d;" 
d="M-206.5 637q-32.5 32 -32.5 77q0 46 32.5 78.5t77.5 32.5t77.5 -32.5t32.5 -78.5q0 -45 -32.5 -77t-77.5 -32t-77.5 32zM-97.5 681.5q13.5 14.5 13.5 32.5t-13.5 32t-31.5 14t-31.5 -14t-13.5 -32t13.5 -32.5t31.5 -14.5t31.5 14.5z" />
    <glyph glyph-name="uni0E4E" unicode="&#xe4e;" 
d="M-271 636q-27 22 -27 60t22.5 60t60.5 25q-16 16 -16 41q0 30 23.5 48t59.5 18t59 -13v-46q-20 14 -48 14q-35 0 -35 -26t39 -35v-44q-23 6 -42 6q-30 0 -44 -10.5t-14 -34.5q0 -19 14 -29t39 -10q35 0 58 17v-47q-27 -16 -74 -16q-48 0 -75 22z" />
    <glyph glyph-name="uni0E4F" unicode="&#xe4f;" horiz-adv-x="597" 
d="M170 18q-58 33 -91.5 91t-33.5 131t33.5 131t91.5 91t128 33q71 0 129 -33t91.5 -91t33.5 -131t-33.5 -131.5t-91.5 -91t-129 -32.5q-70 0 -128 33zM390 80q41 23 64.5 64.5t23.5 95.5q0 53 -23.5 94t-64.5 64t-92 23t-91.5 -23t-64 -64t-23.5 -94q0 -54 23.5 -95.5
t64 -64.5t91.5 -23t92 23zM195 134q-42 41 -42 106q0 64 42 105t104 41t104 -41t42 -105q0 -65 -42 -106t-104 -41t-104 41zM356 180.5q22 22.5 22 59.5q0 36 -22 58.5t-57 22.5t-57.5 -22.5t-22.5 -58.5q0 -37 22.5 -59.5t57.5 -22.5t57 22.5z" />
    <glyph glyph-name="uni0E50" unicode="&#xe50;" horiz-adv-x="641" 
d="M176.5 17q-62.5 32 -97 89.5t-34.5 133.5t34.5 133.5t97 89.5t143.5 32t143.5 -32t97.5 -89.5t35 -133.5t-35 -133.5t-97.5 -89.5t-143.5 -32t-143.5 32zM444.5 112.5q48.5 47.5 48.5 127.5q0 79 -48.5 126.5t-124.5 47.5q-49 0 -88.5 -21.5t-62 -61t-22.5 -91.5
q0 -80 49 -127.5t124 -47.5q76 0 124.5 47.5z" />
    <glyph glyph-name="uni0E51" unicode="&#xe51;" horiz-adv-x="630" 
d="M269 0q113 26 163 80.5t50 152.5q0 89 -42 135t-134 46q-75 0 -117 -39t-42 -106q0 -59 33 -90t94 -31q51 0 85 20v-76q-19 -11 -46.5 -17.5t-59.5 -6.5q-94 0 -151 54.5t-57 146.5q0 105 70 165.5t191 60.5q136 0 207.5 -70.5t71.5 -189.5q0 -122 -79 -204t-237 -118v87
z" />
    <glyph glyph-name="uni0E52" unicode="&#xe52;" horiz-adv-x="721" 
d="M144.5 48q-79.5 63 -79.5 196v306h91v-310q0 -176 207 -176q90 0 146 39t56 120v133q0 29 -11 42.5t-36 13.5q-45 0 -62 -63h-63q-6 33 -17 49t-35 16q-26 0 -41 -23.5t-15 -73.5q0 -49 24.5 -74t66.5 -25q43 0 67 9v-78q-17 -5 -33 -7t-42 -2q-78 0 -124 45.5t-46 131.5
q0 75 34.5 126.5t97.5 51.5q71 0 95 -64q13 29 40 46.5t64 17.5q63 0 95 -34t32 -95v-145q0 -74 -38.5 -127t-105 -81t-149.5 -28q-139 0 -218.5 63z" />
    <glyph glyph-name="uni0E53" unicode="&#xe53;" horiz-adv-x="665" 
d="M141 13.5q-45 28.5 -70.5 84t-25.5 133.5q0 128 50.5 196t137.5 68q71 0 103 -53q18 25 49 39t66 14q66 0 107.5 -38t41.5 -100v-357h-95v348q0 35 -16.5 50.5t-49.5 15.5q-28 0 -45 -15.5t-17 -44.5v-178h-85v178q0 60 -55 60q-45 0 -67.5 -47t-22.5 -138
q0 -83 28.5 -123.5t77.5 -40.5q21 0 43 3t35 8v-81q-38 -10 -88 -10q-57 0 -102 28.5z" />
    <glyph glyph-name="uni0E54" unicode="&#xe54;" horiz-adv-x="629" 
d="M114 59.5q-69 59.5 -69 174.5q0 76 33 136.5t98.5 95.5t160.5 35q65 0 95 3t48 16.5t26 43.5h98q-20 -75 -72.5 -109t-155.5 -34q-118 0 -173.5 -44.5t-55.5 -143.5q0 -81 38 -116t112 -35h54q-21 15 -34 41.5t-13 56.5q0 61 43.5 98t114.5 37q68 0 105 -19v-80
q-14 8 -35.5 13t-43.5 5q-83 0 -83 -74q0 -78 98 -78h87v-82h-287q-120 0 -189 59.5z" />
    <glyph glyph-name="uni0E55" unicode="&#xe55;" horiz-adv-x="629" 
d="M114 59.5q-69 59.5 -69 174.5q0 108 60.5 175t164.5 81q-15 23 -15 46q0 44 27 69t71 25t70 -23.5t26 -64.5q0 -22 -11 -38q33 2 50.5 15.5t24.5 44.5h91q-20 -75 -73.5 -108.5t-154.5 -33.5q-118 0 -173.5 -44.5t-55.5 -144.5q0 -81 38 -116t112 -35h54q-21 15 -34 41.5
t-13 56.5q0 61 43.5 98t114.5 37q68 0 105 -19v-80q-14 8 -35.5 13t-43.5 5q-83 0 -83 -74q0 -78 98 -78h87v-82h-287q-120 0 -189 59.5zM383 505.5q12 12.5 12 30.5t-11.5 30t-30.5 12q-17 0 -29 -12t-12 -30t12 -30.5t29 -12.5q18 0 30 12.5z" />
    <glyph glyph-name="uni0E56" unicode="&#xe56;" horiz-adv-x="652" 
d="M209.5 0.5q-56.5 15.5 -90.5 45.5v86q43 -34 96 -50.5t109 -16.5q83 0 131.5 44.5t48.5 127.5q0 84 -39.5 130.5t-123.5 46.5q-63 0 -111 -32t-69 -96h-72l-64 265h85l38 -161q28 50 81.5 77.5t124.5 27.5q127 0 190 -71t63 -187q0 -73 -34 -130t-97.5 -89.5
t-148.5 -32.5q-61 0 -117.5 15.5z" />
    <glyph glyph-name="uni0E57" unicode="&#xe57;" horiz-adv-x="834" 
d="M141 13.5q-45 28.5 -70.5 84t-25.5 133.5q0 128 49.5 196t136.5 68q71 0 103 -53q18 25 48.5 39t66.5 14q65 0 105 -37.5t40 -100.5v-276q43 0 64.5 18t21.5 64v387h89v-370q0 -100 -53.5 -140t-146.5 -40h-68v348q0 35 -16 50.5t-49 15.5q-28 0 -45 -15t-17 -44v-179
h-83v179q0 59 -55 59q-89 0 -89 -185q0 -83 28.5 -123.5t77.5 -40.5q21 0 43 3t35 8v-81q-38 -10 -88 -10q-57 0 -102 28.5z" />
    <glyph glyph-name="uni0E58" unicode="&#xe58;" horiz-adv-x="660" 
d="M93 45q-48 60 -48 182q0 79 32.5 141t98 97.5t159.5 35.5q64 0 95 3.5t49.5 16.5t26.5 43h98q-20 -75 -73.5 -109t-156.5 -34q-115 0 -171.5 -47t-56.5 -147q0 -87 19.5 -125t62.5 -38q31 0 47 15.5t16 45.5v55h95v-55q0 -29 17.5 -45t46.5 -16q35 0 54 25.5t19 75.5
q0 40 -18.5 62.5t-50.5 22.5q-41 0 -63 -14v81q33 14 82 14q61 0 101.5 -43.5t40.5 -122.5q0 -86 -43 -133t-114 -47q-34 0 -68 13t-52 37q-16 -24 -46.5 -37t-68.5 -13q-82 0 -130 60z" />
    <glyph glyph-name="uni0E59" unicode="&#xe59;" horiz-adv-x="721" 
d="M141 13.5q-44 28.5 -70 83.5t-26 132q0 128 51.5 197t140.5 69q37 0 63.5 -14.5t41.5 -36.5q16 23 42.5 37t60.5 14q87 0 115 -69l50 124h86l-112 -281h-80l19 48q2 16 2 23q0 34 -17 54t-50 20q-32 0 -48.5 -14.5t-16.5 -39.5q0 -16 6 -34l98 -326h-86l-103 344
q-11 37 -25.5 53.5t-47.5 16.5q-45 0 -67 -47.5t-22 -137.5q0 -84 29 -124t82 -40q35 0 62 10v-81q-36 -9 -80 -9q-54 0 -98 28.5z" />
    <glyph glyph-name="uni0E5A" unicode="&#xe5a;" horiz-adv-x="839" 
d="M361 258q-58 -36 -152 -36q-81 0 -132.5 42.5t-51.5 120.5t47 121.5t122 43.5q56 0 89 -13v-77q-29 9 -62 9q-43 0 -68 -20.5t-25 -63.5q0 -83 104 -83q75 0 129 39v194h102v-208q31 -25 82 -25q73 0 127 39v194h102v-535h-102v258q-58 -36 -151 -36q-35 0 -58 13v-235
h-102v258z" />
    <glyph glyph-name="uni0E5B" unicode="&#xe5b;" horiz-adv-x="1135" 
d="M117 50q-72 65 -72 188q0 73 29.5 131.5t83 92t124.5 33.5q105 0 159.5 -52.5t54.5 -143.5q0 -92 -49 -136.5t-123 -44.5q-53 0 -91 22v83q16 -12 38 -19t46 -7q46 0 71 22.5t25 79.5q-2 117 -131 117q-72 0 -113 -47t-41 -131q0 -174 188 -174q119 0 173.5 58.5
t54.5 180.5v98h97l45 -160h2l25 146h81l39 -145h2l23 125h63l43 -121h2l19 52h105v-68h-74l-25 -74h-52l-39 104h-2l-34 -129h-58l-49 144h-2l-37 -165h-60l-44 165h-2q4 -86 -31.5 -152t-104 -102t-160.5 -36q-127 0 -199 65z" />
    <glyph glyph-name="uni0E24.short" horiz-adv-x="640" 
d="M473 335q0 69 -36.5 101.5t-109.5 32.5q-56 0 -97 -16t-76 -53l43 -67v-198q0 -28 11.5 -39t38.5 -11h56v-85h-106q-50 0 -76 28t-26 77v228l-50 81q53 67 121 101.5t161 34.5q120 0 184 -54.5t64 -152.5v-481h-102v473z" />
    <glyph glyph-name="uni0E26.short" horiz-adv-x="659" 
d="M492 335q0 69 -37 101.5t-109 32.5q-55 0 -95.5 -15.5t-74.5 -50.5l60 -69v-229q0 -49 -26.5 -77t-76.5 -28h-88v85h42q27 0 37 10.5t10 39.5v198l-70 81q51 66 120 101t163 35q119 0 183 -54.5t64 -152.5v-481h-102v473z" />
    <glyph glyph-name="doChadathai.short" horiz-adv-x="659" 
d="M182 -66q26 24 70.5 39.5t90.5 15.5q90 0 149 -41v387q0 69 -36.5 101.5t-109.5 32.5q-55 0 -95.5 -16t-74.5 -50l60 -69v-229q0 -49 -26.5 -77t-76.5 -28h-88v85h39q28 0 39 11t11 39v198l-70 81q51 66 120 101t163 35q119 0 183 -54.5t64 -152.5v-489h-91
q-39 30 -76.5 42.5t-83.5 12.5q-45 0 -88 -16t-73 -45v86z" />
    <glyph glyph-name="toPatakthai.short" horiz-adv-x="659" 
d="M167 -146q-28 8 -47 21v78q42 -27 99 -27q87 0 103 75h60l110 -64v398q0 69 -37 101.5t-109 32.5q-55 0 -95.5 -15.5t-74.5 -50.5l60 -69v-229q0 -49 -26.5 -77t-76.5 -28h-88v85h39q28 0 39 11t11 39v198l-70 81q51 66 120 101t163 35q119 0 183 -54.5t64 -152.5v-494
h-97l-129 75q-38 -78 -143 -78q-30 0 -58 8z" />
    <glyph glyph-name="yoYingthai.less" horiz-adv-x="1004" 
d="M516.5 44q-63.5 59 -63.5 159v132q0 69 -33.5 101.5t-102.5 32.5q-52 0 -90.5 -16t-72.5 -53l43 -67v-198q0 -28 11.5 -39t38.5 -11h56v-85h-106q-50 0 -76 28t-26 77v228l-50 81q53 67 118 101.5t154 34.5q116 0 176.5 -54.5t60.5 -152.5v-134q0 -144 142 -144
q72 0 106.5 38t34.5 106v326h102v-332q0 -99 -64 -158.5t-179 -59.5q-116 0 -179.5 59z" />
    <glyph glyph-name="thoThanthai.less" horiz-adv-x="615" 
d="M72 294h101l52 -214q97 0 155.5 50.5t58.5 141.5q0 96 -49 146.5t-157 50.5q-50 0 -101.5 -9.5t-86.5 -25.5v80q37 17 90.5 26.5t109.5 9.5q91 0 160 -33l52 58h113l-96 -109q68 -71 68 -193q0 -82 -40 -144t-108 -95.5t-151 -33.5h-99z" />
    <glyph glyph-name="loChulathai.short" horiz-adv-x="655" 
d="M65 535h101v-388l139 203h41l139 -203v227q0 57 -23.5 81.5t-86.5 24.5v57l112 177h113l-115 -181q58 -16 80 -55.5t22 -102.5v-375h-93l-168 253l-169 -253h-92v535z" />
    <glyph glyph-name="uni0E31.narrow" 
d="M-516 635q-21 21 -21 65v52h92v-42q0 -17 6.5 -23t24.5 -6h172v-67h-207q-46 0 -67 21z" />
    <glyph glyph-name="uni0E48.small" 
d="M-158 956h92v-133h-92v133z" />
    <glyph glyph-name="uni0E49.small" 
d="M-232 880q0 12 -4 16.5t-17 4.5h-42v68h72q58 0 58 -51v-32h169v-63h-236v57z" />
    <glyph glyph-name="uni0E49.narrow" 
d="M-477 677q0 12 -4.5 17t-16.5 5h-45v72h75q32 0 46.5 -15.5t14.5 -38.5v-35h175v-68h-245v63z" />
    <glyph glyph-name="uni0E4A.small" 
d="M-327 897q0 50 24.5 77t64.5 27q26 0 41.5 -10t24.5 -29q15 37 65 37q75 0 75 -76v-50h9q15 0 20.5 7t5.5 23v93h53v-104q0 -69 -88 -69h-53v72q0 24 -7 33.5t-25 9.5q-34 0 -34 -40v-15h-44v14q0 41 -34 41q-17 0 -25.5 -11.5t-8.5 -37.5q0 -16 6 -35.5t16 -34.5h-62
q-24 34 -24 78z" />
    <glyph glyph-name="uni0E4A.narrow" 
d="M-606 702q0 54 25 83.5t66 29.5q29 0 45 -10t25 -31q19 40 70 40q40 0 58.5 -21.5t18.5 -65.5v-55h7q16 0 22 7.5t6 24.5v107h58v-105q0 -45 -22 -68.5t-71 -23.5h-54v85q0 26 -6 37.5t-25 11.5q-22 0 -29 -11.5t-7 -34.5v-17h-50v16q0 23 -7 35t-27 12q-19 0 -27 -13.5
t-8 -41.5q0 -40 27 -79h-69q-26 37 -26 88z" />
    <glyph glyph-name="uni0E4B.small" 
d="M-159 874h-60v62h60v52h93v-52h60v-62h-60v-51h-93v51z" />
    <glyph glyph-name="uni0E4C.small" 
d="M-282 874q0 75 78 75h182v-64h-141q-18 0 -24.5 -6.5t-6.5 -22.5v-33h-88v51z" />
    <glyph glyph-name="uni0E4C.narrow" 
d="M-497 671q0 39 20 58.5t64 19.5h187v-67h-146q-19 0 -26 -7t-7 -25v-36h-92v57z" />
    <glyph glyph-name="uni0E47.narrow" 
d="M-542.5 640q-31.5 30 -31.5 78q0 61 35 92t97 31h220v-58h-214q-34 0 -50.5 -14t-16.5 -44q0 -27 14 -41t40 -14q28 0 42.5 15t14.5 40h57q0 -25 14.5 -38t41.5 -13h41v-60h-39q-33 0 -57 13.5t-30 33.5q-9 -20 -35 -35.5t-59 -15.5q-53 0 -84.5 30z" />
    <glyph glyph-name="uni0E34.narrow" 
d="M-607 683h368v-69h-368v69z" />
    <glyph glyph-name="uni0E35.narrow" 
d="M-607 683h280v107h88v-176h-368v69z" />
    <glyph glyph-name="uni0E36.narrow" 
d="M-607 681h204q-8 18 -6 43q4 36 31 58t66 22q47 0 72.5 -27t25.5 -66q0 -42 -29.5 -69.5t-77.5 -27.5h-286v67zM-279.5 678.5q13.5 13.5 13.5 32.5t-13.5 32.5t-32.5 13.5t-32 -13.5t-13 -32.5q0 -20 13 -33t32 -13t32.5 13.5z" />
    <glyph glyph-name="uni0E37.narrow" 
d="M-607 681h160v109h67v-109h74v109h67v-176h-368v67z" />
    <glyph glyph-name="uni0E4D0E48" 
d="M-158 1016h92v-133h-92v133zM-206.5 637q-32.5 32 -32.5 77q0 46 32.5 78.5t77.5 32.5t77.5 -32.5t32.5 -78.5q0 -45 -32.5 -77t-77.5 -32t-77.5 32zM-97.5 681.5q13.5 14.5 13.5 32.5t-13.5 32t-31.5 14t-31.5 -14t-13.5 -32t13.5 -32.5t31.5 -14.5t31.5 14.5z" />
    <glyph glyph-name="uni0E4D0E49" 
d="M-232 940q0 12 -4 16.5t-17 4.5h-42v68h72q58 0 58 -51v-32h169v-63h-236v57zM-206.5 637q-32.5 32 -32.5 77q0 46 32.5 78.5t77.5 32.5t77.5 -32.5t32.5 -78.5q0 -45 -32.5 -77t-77.5 -32t-77.5 32zM-97.5 681.5q13.5 14.5 13.5 32.5t-13.5 32t-31.5 14t-31.5 -14
t-13.5 -32t13.5 -32.5t31.5 -14.5t31.5 14.5z" />
    <glyph glyph-name="uni0E4D0E4A" 
d="M-297 957q0 50 24.5 77t64.5 27q26 0 41.5 -10t24.5 -29q15 37 65 37q75 0 75 -76v-50h9q15 0 20.5 7t5.5 23v93h53v-104q0 -69 -88 -69h-53v72q0 24 -7 33.5t-25 9.5q-34 0 -34 -40v-15h-44v14q0 41 -34 41q-17 0 -25.5 -11.5t-8.5 -37.5q0 -16 6 -35.5t16 -34.5h-62
q-24 34 -24 78zM-206.5 637q-32.5 32 -32.5 77q0 46 32.5 78.5t77.5 32.5t77.5 -32.5t32.5 -78.5q0 -45 -32.5 -77t-77.5 -32t-77.5 32zM-97.5 681.5q13.5 14.5 13.5 32.5t-13.5 32t-31.5 14t-31.5 -14t-13.5 -32t13.5 -32.5t31.5 -14.5t31.5 14.5z" />
    <glyph glyph-name="uni0E4D0E4B" 
d="M-173 934h-60v62h60v52h93v-52h60v-62h-60v-51h-93v51zM-206.5 637q-32.5 32 -32.5 77q0 46 32.5 78.5t77.5 32.5t77.5 -32.5t32.5 -78.5q0 -45 -32.5 -77t-77.5 -32t-77.5 32zM-97.5 681.5q13.5 14.5 13.5 32.5t-13.5 32t-31.5 14t-31.5 -14t-13.5 -32t13.5 -32.5
t31.5 -14.5t31.5 14.5z" />
    <glyph glyph-name="uni0E3A.small" 
d="M-154.5 -258.5q-16.5 16.5 -16.5 39.5q0 24 16.5 40.5t39.5 16.5t40 -16.5t17 -40.5q0 -23 -17 -39.5t-40 -16.5t-39.5 16.5z" />
    <glyph glyph-name="uni0E38.small" 
d="M-157 -269q0 18 -6.5 24.5t-25.5 6.5h-33v73h82q45 0 60.5 -17.5t15.5 -63.5v-110h-93v87z" />
    <glyph glyph-name="uni0E39.small" 
d="M-283.5 -342q-34.5 26 -34.5 70v16q0 14 -4 18.5t-17 4.5h-34v68h88q27 0 37 -12t10 -38v-47q0 -45 48 -45q47 0 47 45v97h80v-105q0 -43 -32.5 -70.5t-91.5 -27.5q-62 0 -96.5 26z" />
    <glyph glyph-name="uni0E48.narrow" 
d="M-419 781h101v-167h-101v167z" />
    <glyph glyph-name="uni0E4B.narrow" 
d="M-424 664h-65v78h65v51h99v-51h64v-78h-64v-50h-99v50z" />
    <glyph glyph-name="uni0E4D.narrow" 
d="M-452.5 637q-32.5 32 -32.5 77q0 46 32.5 78.5t77.5 32.5t77.5 -32.5t32.5 -78.5q0 -45 -32.5 -77t-77.5 -32t-77.5 32zM-340 678q15 16 15 36q0 21 -14.5 36t-35.5 15t-35.5 -15t-14.5 -36t14.5 -36.5t35.5 -15.5q20 0 35 16z" />
    <glyph glyph-name="uni0E4D0E48.narrow" 
d="M-418 1016h92v-133h-92v133zM-452.5 637q-32.5 32 -32.5 77q0 46 32.5 78.5t77.5 32.5t77.5 -32.5t32.5 -78.5q0 -45 -32.5 -77t-77.5 -32t-77.5 32zM-340 678q15 16 15 36q0 21 -14.5 36t-35.5 15t-35.5 -15t-14.5 -36t14.5 -36.5t35.5 -15.5q20 0 35 16z" />
    <glyph glyph-name="uni0E4D0E49.narrow" 
d="M-492 940q0 12 -4 16.5t-17 4.5h-42v68h72q58 0 58 -51v-32h169v-63h-236v57zM-452.5 637q-32.5 32 -32.5 77q0 46 32.5 78.5t77.5 32.5t77.5 -32.5t32.5 -78.5q0 -45 -32.5 -77t-77.5 -32t-77.5 32zM-340 678q15 16 15 36q0 21 -14.5 36t-35.5 15t-35.5 -15t-14.5 -36
t14.5 -36.5t35.5 -15.5q20 0 35 16z" />
    <glyph glyph-name="uni0E4D0E4A.narrow" 
d="M-538 957q0 50 24.5 77t64.5 27q26 0 41.5 -10t24.5 -29q15 37 65 37q75 0 75 -76v-50h9q15 0 20.5 7t5.5 23v93h53v-104q0 -69 -88 -69h-53v72q0 24 -7 33.5t-25 9.5q-34 0 -34 -40v-15h-44v14q0 41 -34 41q-17 0 -25.5 -11.5t-8.5 -37.5q0 -16 6 -35.5t16 -34.5h-62
q-24 34 -24 78zM-452.5 637q-32.5 32 -32.5 77q0 46 32.5 78.5t77.5 32.5t77.5 -32.5t32.5 -78.5q0 -45 -32.5 -77t-77.5 -32t-77.5 32zM-340 678q15 16 15 36q0 21 -14.5 36t-35.5 15t-35.5 -15t-14.5 -36t14.5 -36.5t35.5 -15.5q20 0 35 16z" />
    <glyph glyph-name="uni0E4D0E4B.narrow" 
d="M-415 934h-60v62h60v52h93v-52h60v-62h-60v-51h-93v51zM-452.5 637q-32.5 32 -32.5 77q0 46 32.5 78.5t77.5 32.5t77.5 -32.5t32.5 -78.5q0 -45 -32.5 -77t-77.5 -32t-77.5 32zM-340 678q15 16 15 36q0 21 -14.5 36t-35.5 15t-35.5 -15t-14.5 -36t14.5 -36.5t35.5 -15.5
q20 0 35 16z" />
  </font>
</defs></svg>
